G04*
G04 #@! TF.GenerationSoftware,Altium Limited,Altium Designer,18.1.6 (161)*
G04*
G04 Layer_Physical_Order=1*
G04 Layer_Color=255*
%FSLAX44Y44*%
%MOMM*%
G71*
G01*
G75*
%ADD11C,0.0100*%
%ADD16C,1.5000*%
%ADD17R,2.2000X2.2000*%
%ADD18C,2.5000*%
%ADD19C,2.6000*%
%ADD20C,1.8000*%
G54D11*
X0Y0D02*
Y320000D01*
X320000D01*
Y0D02*
Y320000D01*
X0Y0D02*
X320000D01*
G54D16*
X221714Y292750D02*
X243750D01*
X288000Y248500D01*
Y125750D02*
Y248500D01*
X125500Y113500D02*
X135375Y123375D01*
Y246625D01*
X89250Y292750D02*
X135375Y246625D01*
X235308Y23604D02*
Y47442D01*
X195750Y87000D02*
X235308Y47442D01*
X195750Y87000D02*
Y113500D01*
X54250Y57405D02*
X88051Y23604D01*
X54250Y57405D02*
Y131500D01*
X42250Y143500D02*
X54250Y131500D01*
X28750Y143500D02*
X42250D01*
X275750Y113500D02*
X288000Y125750D01*
X108750Y113500D02*
X125500D01*
G54D17*
X16500Y57500D02*
D03*
X221714Y292750D02*
D03*
X89250D02*
D03*
X17250Y24250D02*
D03*
X235308Y23604D02*
D03*
X161805D02*
D03*
X88051D02*
D03*
G54D18*
X195750Y143500D02*
D03*
Y113500D02*
D03*
X28750Y143500D02*
D03*
Y113500D02*
D03*
G54D19*
X275750D02*
D03*
X108750D02*
D03*
G54D20*
X265750Y149500D02*
D03*
X190750Y215500D02*
D03*
X98750Y149500D02*
D03*
X23750Y215500D02*
D03*
M02*
