M48
;Layer_Color=9474304
;FILE_FORMAT=4:4
METRIC,LZ
;TYPE=PLATED
T1F00S00C1.1000
T2F00S00C1.2000
T3F00S00C1.7000
T4F00S00C1.8000
%
T01
X0026575Y001495
X0019075Y002155
X0009875Y001495
X0002375Y002155
T02
X0001725Y0002425
X000165Y000575
X00088051Y00023604
X00161805
X00235308
X00221714Y0029275
X0008925
T03
X0002875Y001135
Y001435
X0019575
Y001135
T04
X0010875Y001135
X0027575
M30
