Removed Pin From Net: NetName=TRUNK_IN Pin=Q8-3
Removed Pin From Net: NetName=TRUNK_OUT Pin=Q8-4
Removed Pin From Net: NetName=GND Pin=SW1-1
Removed Pin From Net: NetName=TRUNK_IN Pin=TP1-1
Change Component Footprint: Designator=SW1 Old Footprint=SWTACTKSC New Footprint=SWTACTKSR
Change Component Comment : Designator=SW1 Old Comment=PUSH BUTTON SW. New Comment=SWITCH
Change component parameters: Designator = "D8"; Footprint = "DIOM4527X24N"; UniqueID = "\NIVWJWXD"
Change component parameters. Clean all parameters for all variants
Change component parameters (AddParameter): Name = "ComponentLink1Description"; Value = "Datasheet"; VariantName = "[No Variations]"
Change component parameters (AddParameter): Name = "ComponentLink1URL"; Value = "http://10.3.0.23/svn/altiumlib/trunk/ecad_shared/components&datasheets/Diode/General/S1G Diotec 400V 1A.pdf"; VariantName = "[No Variations]"
Change component parameters (AddParameter): Name = "ComponentLink2Description"; Value = ""; VariantName = "[No Variations]"
Change component parameters (AddParameter): Name = "ComponentLink2URL"; Value = ""; VariantName = "[No Variations]"
Change component parameters (AddParameter): Name = "Configuration"; Value = "Single"; VariantName = "[No Variations]"
Change component parameters (AddParameter): Name = "Current"; Value = "1A"; VariantName = "[No Variations]"
Change component parameters (AddParameter): Name = "Design Part ID"; Value = "42"; VariantName = "[No Variations]"
Change component parameters (AddParameter): Name = "JEDEC"; Value = "DO-214AC/SMA"; VariantName = "[No Variations]"
Change component parameters (AddParameter): Name = "Lifecycle"; Value = "RELEASED"; VariantName = "[No Variations]"
Change component parameters (AddParameter): Name = "Mounting"; Value = "SMT"; VariantName = "[No Variations]"
Change component parameters (AddParameter): Name = "Originator"; Value = ""; VariantName = "[No Variations]"
Change component parameters (AddParameter): Name = "Part Number"; Value = "2SDS1G/01"; VariantName = "[No Variations]"
Change component parameters (AddParameter): Name = "Power"; Value = ""; VariantName = "[No Variations]"
Change component parameters (AddParameter): Name = "Project Ref"; Value = ""; VariantName = "[No Variations]"
Change component parameters (AddParameter): Name = "Sys_Description"; Value = "DO NOT USE"; VariantName = "[No Variations]"
Change component parameters (AddParameter): Name = "Sys_Ebq"; Value = "10000.000000"; VariantName = "[No Variations]"
Change component parameters (AddParameter): Name = "Sys_Leadtime"; Value = "20"; VariantName = "[No Variations]"
Change component parameters (AddParameter): Name = "Sys_LongDescription"; Value = "DIO GP 1A 400V S1G SMA"; VariantName = "[No Variations]"
Change component parameters (AddParameter): Name = "Sys_Manufacturer"; Value = "YANGZHOU YANGJIE ELECTRONIC"; VariantName = "[No Variations]"
Change component parameters (AddParameter): Name = "Sys_ManufacturerPartNo"; Value = "S1G"; VariantName = "[No Variations]"
Change component parameters (AddParameter): Name = "Sys_MaterialCost"; Value = "0.08790"; VariantName = "[No Variations]"
Change component parameters (AddParameter): Name = "Sys_PartCategory"; Value = ""; VariantName = "[No Variations]"
Change component parameters (AddParameter): Name = "Sys_QtyAllocated"; Value = "0"; VariantName = "[No Variations]"
Change component parameters (AddParameter): Name = "Sys_QtyFree"; Value = "0"; VariantName = "[No Variations]"
Change component parameters (AddParameter): Name = "Sys_QtyOnHand"; Value = "0"; VariantName = "[No Variations]"
Change component parameters (AddParameter): Name = "Sys_StockOnHold"; Value = ""; VariantName = "[No Variations]"
Change component parameters (AddParameter): Name = "Sys_Supplier"; Value = "YAN001"; VariantName = "[No Variations]"
Change component parameters (AddParameter): Name = "Sys_UnitOfMeasure"; Value = "ea"; VariantName = "[No Variations]"
Change component parameters (AddParameter): Name = "Sys_UpdateDateTime"; Value = "2018-05-31 11:02:10 PM"; VariantName = "[No Variations]"
Change component parameters (AddParameter): Name = "Sys_Warehouse"; Value = "S2"; VariantName = "[No Variations]"
Change component parameters (AddParameter): Name = "Sys_YtdQtyIssued"; Value = "0"; VariantName = "[No Variations]"
Change component parameters (AddParameter): Name = "Temperature"; Value = "-50C to +150C"; VariantName = "[No Variations]"
Change component parameters (AddParameter): Name = "Tolerance"; Value = ""; VariantName = "[No Variations]"
Change component parameters (AddParameter): Name = "Type"; Value = "Rectifier"; VariantName = "[No Variations]"
Change component parameters (AddParameter): Name = "Value"; Value = "S1G"; VariantName = "[No Variations]"
Change component parameters (AddParameter): Name = "Vfw"; Value = "1.1V"; VariantName = "[No Variations]"
Change component parameters (AddParameter): Name = "Vr"; Value = "400V"; VariantName = "[No Variations]"
Change component parameters (AddParameter): Name = "Vz"; Value = ""; VariantName = "[No Variations]"
Change component parameters: Designator = "SW1"; Footprint = "SWTACTKSR"; UniqueID = "\SCMQNFRC"
Change component parameters. Clean all parameters for all variants
Change component parameters (AddParameter): Name = "ComponentLink1Description"; Value = "Datasheet"; VariantName = "[No Variations]"
Change component parameters (AddParameter): Name = "ComponentLink1URL"; Value = "http://10.3.0.23/svn/altiumlib/trunk/ecad_shared/components&datasheets/Electromechanical/Switch/KSR TACT SWITCH_C & SCOMPONENTS.pdf"; VariantName = "[No Variations]"
Change component parameters (AddParameter): Name = "ComponentLink2Description"; Value = ""; VariantName = "[No Variations]"
Change component parameters (AddParameter): Name = "ComponentLink2URL"; Value = ""; VariantName = "[No Variations]"
Change component parameters (AddParameter): Name = "Configuration"; Value = "SPST"; VariantName = "[No Variations]"
Change component parameters (AddParameter): Name = "Contact Rating"; Value = "50mA, 32VDC"; VariantName = "[No Variations]"
Change component parameters (AddParameter): Name = "Design Part ID"; Value = "17"; VariantName = "[No Variations]"
Change component parameters (AddParameter): Name = "Isolation"; Value = ""; VariantName = "[No Variations]"
Change component parameters (AddParameter): Name = "JEDEC"; Value = ""; VariantName = "[No Variations]"
Change component parameters (AddParameter): Name = "Lifecycle"; Value = "RELEASED"; VariantName = "[No Variations]"
Change component parameters (AddParameter): Name = "Mounting"; Value = "SMT"; VariantName = "[No Variations]"
Change component parameters (AddParameter): Name = "Originator"; Value = ""; VariantName = "[No Variations]"
Change component parameters (AddParameter): Name = "Part Number"; Value = "2EMSW/TACT/02"; VariantName = "[No Variations]"
Change component parameters (AddParameter): Name = "Project Ref"; Value = ""; VariantName = "[No Variations]"
Change component parameters (AddParameter): Name = "Sys_Description"; Value = "SWITCH TACTYL ITT Y35A25120FP"; VariantName = "[No Variations]"
Change component parameters (AddParameter): Name = "Sys_Ebq"; Value = "42500.000000"; VariantName = "[No Variations]"
Change component parameters (AddParameter): Name = "Sys_Leadtime"; Value = "76"; VariantName = "[No Variations]"
Change component parameters (AddParameter): Name = "Sys_LongDescription"; Value = ""; VariantName = "[No Variations]"
Change component parameters (AddParameter): Name = "Sys_Manufacturer"; Value = "C&K COMPONENTS"; VariantName = "[No Variations]"
Change component parameters (AddParameter): Name = "Sys_ManufacturerPartNo"; Value = "KSR251GLFS"; VariantName = "[No Variations]"
Change component parameters (AddParameter): Name = "Sys_MaterialCost"; Value = "1.57820"; VariantName = "[No Variations]"
Change component parameters (AddParameter): Name = "Sys_PartCategory"; Value = ""; VariantName = "[No Variations]"
Change component parameters (AddParameter): Name = "Sys_QtyAllocated"; Value = "103599"; VariantName = "[No Variations]"
Change component parameters (AddParameter): Name = "Sys_QtyFree"; Value = "18504"; VariantName = "[No Variations]"
Change component parameters (AddParameter): Name = "Sys_QtyOnHand"; Value = "122103"; VariantName = "[No Variations]"
Change component parameters (AddParameter): Name = "Sys_StockOnHold"; Value = ""; VariantName = "[No Variations]"
Change component parameters (AddParameter): Name = "Sys_Supplier"; Value = "FUT004"; VariantName = "[No Variations]"
Change component parameters (AddParameter): Name = "Sys_UnitOfMeasure"; Value = "ea"; VariantName = "[No Variations]"
Change component parameters (AddParameter): Name = "Sys_UpdateDateTime"; Value = "2018-06-27 11:02:15 PM"; VariantName = "[No Variations]"
Change component parameters (AddParameter): Name = "Sys_Warehouse"; Value = "S2"; VariantName = "[No Variations]"
Change component parameters (AddParameter): Name = "Sys_YtdQtyIssued"; Value = "235662"; VariantName = "[No Variations]"
Change component parameters (AddParameter): Name = "Temperature"; Value = "-40C to +85C"; VariantName = "[No Variations]"
Change component parameters (AddParameter): Name = "Type"; Value = "Switch"; VariantName = "[No Variations]"
Change component parameters (AddParameter): Name = "Value"; Value = "SWITCH"; VariantName = "[No Variations]"
Added Component: Designator=R21(0603RES)
Add component. Clean all parameters for all variants
Added Pin To Net: NetName=TRUNK_OUT Pin=Q8-3
Added Pin To Net: NetName=TRUNK_IN Pin=Q8-4
Added Pin To Net: NetName=5V Pin=R21-2
Added Pin To Net: NetName=TRUNK_OUT Pin=TP1-1
Added Pin To Net: NetName=NetR21_1 Pin=R21-1
Added Pin To Net: NetName=NetR21_1 Pin=SW1-2
Added Net: Name=NetR21_1
Added Pin To Net: NetName=NetSW1_1 Pin=SW1-1
Added Pin To Net: NetName=NetSW1_1 Pin=U1-1
Added Net: Name=NetSW1_1
Added Member To Class: ClassName=AIO Flasher_rev1 Member=Component R21 10K
