Added Component: Designator=R21(0603RES)
Add component. Clean all parameters for all variants
Added Component: Designator=SW1(SWTACTKSR)
Add component. Clean all parameters for all variants
Add component (AddParameter): Name = "ComponentLink1Description"; Value = "Datasheet"; VariantName = "[No Variations]"
Add component (AddParameter): Name = "ComponentLink1URL"; Value = "http://10.3.0.23/svn/altiumlib/trunk/ecad_shared/components&datasheets/Electromechanical/Switch/KSR TACT SWITCH_C & SCOMPONENTS.pdf"; VariantName = "[No Variations]"
Add component (AddParameter): Name = "ComponentLink2Description"; Value = ""; VariantName = "[No Variations]"
Add component (AddParameter): Name = "ComponentLink2URL"; Value = ""; VariantName = "[No Variations]"
Add component (AddParameter): Name = "Configuration"; Value = "SPST"; VariantName = "[No Variations]"
Add component (AddParameter): Name = "Contact Rating"; Value = "50mA, 32VDC"; VariantName = "[No Variations]"
Add component (AddParameter): Name = "Design Part ID"; Value = "17"; VariantName = "[No Variations]"
Add component (AddParameter): Name = "Isolation"; Value = ""; VariantName = "[No Variations]"
Add component (AddParameter): Name = "JEDEC"; Value = ""; VariantName = "[No Variations]"
Add component (AddParameter): Name = "Lifecycle"; Value = "RELEASED"; VariantName = "[No Variations]"
Add component (AddParameter): Name = "Mounting"; Value = "SMT"; VariantName = "[No Variations]"
Add component (AddParameter): Name = "Originator"; Value = ""; VariantName = "[No Variations]"
Add component (AddParameter): Name = "Part Number"; Value = "2EMSW/TACT/02"; VariantName = "[No Variations]"
Add component (AddParameter): Name = "Project Ref"; Value = ""; VariantName = "[No Variations]"
Add component (AddParameter): Name = "Sys_Description"; Value = "SWITCH TACTYL ITT Y35A25120FP"; VariantName = "[No Variations]"
Add component (AddParameter): Name = "Sys_Ebq"; Value = "42500.000000"; VariantName = "[No Variations]"
Add component (AddParameter): Name = "Sys_Leadtime"; Value = "76"; VariantName = "[No Variations]"
Add component (AddParameter): Name = "Sys_LongDescription"; Value = ""; VariantName = "[No Variations]"
Add component (AddParameter): Name = "Sys_Manufacturer"; Value = "C&K COMPONENTS"; VariantName = "[No Variations]"
Add component (AddParameter): Name = "Sys_ManufacturerPartNo"; Value = "KSR251GLFS"; VariantName = "[No Variations]"
Add component (AddParameter): Name = "Sys_MaterialCost"; Value = "1.57820"; VariantName = "[No Variations]"
Add component (AddParameter): Name = "Sys_PartCategory"; Value = ""; VariantName = "[No Variations]"
Add component (AddParameter): Name = "Sys_QtyAllocated"; Value = "103599"; VariantName = "[No Variations]"
Add component (AddParameter): Name = "Sys_QtyFree"; Value = "18504"; VariantName = "[No Variations]"
Add component (AddParameter): Name = "Sys_QtyOnHand"; Value = "122103"; VariantName = "[No Variations]"
Add component (AddParameter): Name = "Sys_StockOnHold"; Value = ""; VariantName = "[No Variations]"
Add component (AddParameter): Name = "Sys_Supplier"; Value = "FUT004"; VariantName = "[No Variations]"
Add component (AddParameter): Name = "Sys_UnitOfMeasure"; Value = "ea"; VariantName = "[No Variations]"
Add component (AddParameter): Name = "Sys_UpdateDateTime"; Value = "2018-06-27 11:02:15 PM"; VariantName = "[No Variations]"
Add component (AddParameter): Name = "Sys_Warehouse"; Value = "S2"; VariantName = "[No Variations]"
Add component (AddParameter): Name = "Sys_YtdQtyIssued"; Value = "235662"; VariantName = "[No Variations]"
Add component (AddParameter): Name = "Temperature"; Value = "-40C to +85C"; VariantName = "[No Variations]"
Add component (AddParameter): Name = "Type"; Value = "Switch"; VariantName = "[No Variations]"
Add component (AddParameter): Name = "Value"; Value = "SWITCH"; VariantName = "[No Variations]"
Added Pin To Net: NetName=5V Pin=R21-2
Added Pin To Net: NetName=NetR21_1 Pin=R21-1
Added Pin To Net: NetName=NetR21_1 Pin=SW1-1
Added Net: Name=NetR21_1
Added Pin To Net: NetName=SWITCH Pin=SW1-2
Added Pin To Net: NetName=SWITCH Pin=U1-7
Added Net: Name=SWITCH
Added Member To Class: ClassName=AIO Flasher_rev1 Member=Component R21 10K
Added Member To Class: ClassName=AIO Flasher_rev1 Member=Component SW1 SWITCH
