M48
;Layer_Color=9474304
;FILE_FORMAT=4:4
METRIC,LZ
;TYPE=PLATED
T1F00S00C0.4000
T2F00S00C1.1000
T3F00S00C1.4000
T4F00S00C1.7000
T5F00S00C1.8000
T6F00S00C2.0000
%
T01
X003055Y0012825
X00342Y002385
T02
X00265075Y003352
X003365Y004012
X004115Y003352
X00190075Y004012
X001207Y003352
X000457Y004012
X000457Y0025075
X001207Y0018475
T03
X0034025Y0047025
Y0050775
Y0054525
X0018765
X0013725
X0008685
Y0047025
X0013725
X0018765
T04
X000507Y0014875
X003415Y002992
Y003292
X00195075
Y002992
X000507
Y003292
X000507Y0017875
T05
X001307Y0014875
X003245Y0008525
X003665
X004085
Y0003025
X003665
X003245
X00275075Y002992
X004215
X001307
T06
X000595Y00038753
Y00083752
X001045Y0008375
X001495
Y0003875
X001045
X001945
Y0008375
M30
