G04*
G04 #@! TF.GenerationSoftware,Altium Limited,Altium Designer,18.1.6 (161)*
G04*
G04 Layer_Physical_Order=2*
G04 Layer_Color=16711680*
%FSLAX44Y44*%
%MOMM*%
G71*
G01*
G75*
%ADD15C,0.1500*%
%ADD31C,0.5000*%
%ADD32C,2.0000*%
%ADD33C,1.0000*%
%ADD34C,1.8000*%
%ADD35C,2.6000*%
%ADD36C,2.5000*%
%ADD37R,3.3000X3.3000*%
%ADD38R,2.7000X2.7000*%
%ADD39C,2.7000*%
%ADD40C,2.1000*%
%ADD41C,0.7000*%
G36*
X466432Y3569D02*
X3569D01*
Y576432D01*
X466432D01*
Y3569D01*
D02*
G37*
%LPC*%
G36*
X138520Y558699D02*
Y546520D01*
X150699D01*
X150402Y548774D01*
X149042Y552058D01*
X146878Y554878D01*
X144058Y557042D01*
X140774Y558402D01*
X138520Y558699D01*
D02*
G37*
G36*
X135980Y558699D02*
X133726Y558402D01*
X130442Y557042D01*
X127622Y554878D01*
X125458Y552058D01*
X124097Y548774D01*
X123801Y546520D01*
X135980D01*
Y558699D01*
D02*
G37*
G36*
X150699Y543980D02*
X138520D01*
Y531801D01*
X140774Y532098D01*
X144058Y533458D01*
X146878Y535622D01*
X149042Y538442D01*
X150402Y541726D01*
X150699Y543980D01*
D02*
G37*
G36*
X135980D02*
X123801D01*
X124097Y541726D01*
X125458Y538442D01*
X127622Y535622D01*
X130442Y533458D01*
X133726Y532098D01*
X135980Y531801D01*
Y543980D01*
D02*
G37*
G36*
X340250Y558867D02*
X336726Y558402D01*
X333442Y557042D01*
X330622Y554878D01*
X328458Y552058D01*
X327098Y548774D01*
X326634Y545250D01*
X327098Y541726D01*
X328458Y538442D01*
X330622Y535622D01*
X333442Y533458D01*
X336726Y532098D01*
X340250Y531633D01*
X343774Y532098D01*
X347058Y533458D01*
X349878Y535622D01*
X352042Y538442D01*
X353402Y541726D01*
X353867Y545250D01*
X353402Y548774D01*
X352042Y552058D01*
X349878Y554878D01*
X347058Y557042D01*
X343774Y558402D01*
X340250Y558867D01*
D02*
G37*
G36*
X187650D02*
X184126Y558402D01*
X180842Y557042D01*
X178022Y554878D01*
X175858Y552058D01*
X174498Y548774D01*
X174034Y545250D01*
X174498Y541726D01*
X175858Y538442D01*
X178022Y535622D01*
X180842Y533458D01*
X184126Y532098D01*
X187650Y531633D01*
X191174Y532098D01*
X194458Y533458D01*
X197278Y535622D01*
X199442Y538442D01*
X200802Y541726D01*
X201266Y545250D01*
X200802Y548774D01*
X199442Y552058D01*
X197278Y554878D01*
X194458Y557042D01*
X191174Y558402D01*
X187650Y558867D01*
D02*
G37*
G36*
X86850D02*
X83326Y558402D01*
X80042Y557042D01*
X77222Y554878D01*
X75058Y552058D01*
X73698Y548774D01*
X73234Y545250D01*
X73698Y541726D01*
X75058Y538442D01*
X77222Y535622D01*
X80042Y533458D01*
X83326Y532098D01*
X86850Y531633D01*
X90374Y532098D01*
X93658Y533458D01*
X96478Y535622D01*
X98642Y538442D01*
X100002Y541726D01*
X100466Y545250D01*
X100002Y548774D01*
X98642Y552058D01*
X96478Y554878D01*
X93658Y557042D01*
X90374Y558402D01*
X86850Y558867D01*
D02*
G37*
G36*
X341520Y521199D02*
Y509020D01*
X353699D01*
X353402Y511274D01*
X352042Y514558D01*
X349878Y517378D01*
X347058Y519542D01*
X343774Y520902D01*
X341520Y521199D01*
D02*
G37*
G36*
X338980Y521199D02*
X336726Y520902D01*
X333442Y519542D01*
X330622Y517378D01*
X328458Y514558D01*
X327098Y511274D01*
X326801Y509020D01*
X338980D01*
Y521199D01*
D02*
G37*
G36*
X353699Y506480D02*
X341520D01*
Y494301D01*
X343774Y494598D01*
X347058Y495958D01*
X349878Y498122D01*
X352042Y500942D01*
X353402Y504226D01*
X353699Y506480D01*
D02*
G37*
G36*
X338980D02*
X326801D01*
X327098Y504226D01*
X328458Y500942D01*
X330622Y498122D01*
X333442Y495958D01*
X336726Y494598D01*
X338980Y494301D01*
Y506480D01*
D02*
G37*
G36*
X138520Y483699D02*
Y471520D01*
X150699D01*
X150402Y473774D01*
X149042Y477058D01*
X146878Y479878D01*
X144058Y482042D01*
X140774Y483402D01*
X138520Y483699D01*
D02*
G37*
G36*
X135980Y483699D02*
X133726Y483402D01*
X130442Y482042D01*
X127622Y479878D01*
X125458Y477058D01*
X124097Y473774D01*
X123801Y471520D01*
X135980D01*
Y483699D01*
D02*
G37*
G36*
X150699Y468980D02*
X138520D01*
Y456801D01*
X140774Y457098D01*
X144058Y458458D01*
X146878Y460622D01*
X149042Y463442D01*
X150402Y466726D01*
X150699Y468980D01*
D02*
G37*
G36*
X135980D02*
X123801D01*
X124097Y466726D01*
X125458Y463442D01*
X127622Y460622D01*
X130442Y458458D01*
X133726Y457098D01*
X135980Y456801D01*
Y468980D01*
D02*
G37*
G36*
X86850Y483867D02*
X83326Y483402D01*
X80042Y482042D01*
X77222Y479878D01*
X75058Y477058D01*
X73698Y473774D01*
X73234Y470250D01*
X73698Y466726D01*
X75058Y463442D01*
X77222Y460622D01*
X80042Y458458D01*
X83326Y457098D01*
X86850Y456633D01*
X90374Y457098D01*
X93658Y458458D01*
X96478Y460622D01*
X98642Y463442D01*
X100002Y466726D01*
X100466Y470250D01*
X100002Y473774D01*
X98642Y477058D01*
X96478Y479878D01*
X93658Y482042D01*
X90374Y483402D01*
X86850Y483867D01*
D02*
G37*
G36*
X190075Y413303D02*
X186942Y412891D01*
X184023Y411682D01*
X181516Y409758D01*
X179593Y407252D01*
X178384Y404333D01*
X177971Y401200D01*
X178384Y398067D01*
X179593Y395148D01*
X181516Y392641D01*
X184023Y390718D01*
X186942Y389509D01*
X190075Y389096D01*
X193208Y389509D01*
X196127Y390718D01*
X198633Y392641D01*
X200557Y395148D01*
X201766Y398067D01*
X202178Y401200D01*
X201766Y404333D01*
X200557Y407252D01*
X198633Y409758D01*
X196127Y411682D01*
X193208Y412891D01*
X190075Y413303D01*
D02*
G37*
G36*
X340250Y483867D02*
X336726Y483402D01*
X333442Y482042D01*
X330622Y479878D01*
X328458Y477058D01*
X327098Y473774D01*
X326634Y470250D01*
X327098Y466726D01*
X328458Y463442D01*
X330622Y460622D01*
X333442Y458458D01*
X336726Y457098D01*
X340250Y456633D01*
X342199Y456890D01*
X356931Y442158D01*
Y337454D01*
X354931Y336953D01*
X354450Y337853D01*
X352513Y340213D01*
X350153Y342150D01*
X347460Y343589D01*
X344538Y344476D01*
X341500Y344775D01*
X338461Y344476D01*
X335540Y343589D01*
X332847Y342150D01*
X330487Y340213D01*
X328550Y337853D01*
X327110Y335160D01*
X326224Y332239D01*
X325925Y329200D01*
X326224Y326161D01*
X327110Y323240D01*
X328550Y320547D01*
X330487Y318187D01*
X332847Y316250D01*
X334561Y315334D01*
Y313066D01*
X332847Y312150D01*
X330487Y310213D01*
X328550Y307853D01*
X327110Y305160D01*
X326224Y302239D01*
X325925Y299200D01*
X326224Y296161D01*
X327110Y293240D01*
X328550Y290547D01*
X330487Y288187D01*
X332847Y286250D01*
X335540Y284811D01*
X338461Y283924D01*
X341500Y283625D01*
X344538Y283924D01*
X347460Y284811D01*
X350153Y286250D01*
X352513Y288187D01*
X354450Y290547D01*
X354931Y291447D01*
X356931Y290946D01*
Y264842D01*
X336294Y244206D01*
X335012Y242535D01*
X334206Y240588D01*
X333931Y238500D01*
X334206Y236412D01*
X335012Y234466D01*
X336294Y232794D01*
X337966Y231512D01*
X339912Y230706D01*
X342000Y230431D01*
X344088Y230706D01*
X346035Y231512D01*
X347706Y232794D01*
X370706Y255794D01*
X371988Y257465D01*
X372794Y259412D01*
X373069Y261500D01*
Y445500D01*
X372794Y447588D01*
X371988Y449534D01*
X370706Y451206D01*
X353610Y468301D01*
X353867Y470250D01*
X353402Y473774D01*
X352042Y477058D01*
X349878Y479878D01*
X347058Y482042D01*
X343774Y483402D01*
X340250Y483867D01*
D02*
G37*
G36*
X411500Y347304D02*
X408367Y346891D01*
X405448Y345682D01*
X402942Y343759D01*
X401018Y341252D01*
X399809Y338333D01*
X399397Y335200D01*
X399809Y332067D01*
X401018Y329148D01*
X402942Y326642D01*
X405448Y324718D01*
X408367Y323509D01*
X411500Y323097D01*
X414633Y323509D01*
X417552Y324718D01*
X420059Y326642D01*
X421982Y329148D01*
X423191Y332067D01*
X423604Y335200D01*
X423191Y338333D01*
X421982Y341252D01*
X420059Y343759D01*
X417552Y345682D01*
X414633Y346891D01*
X411500Y347304D01*
D02*
G37*
G36*
X265075D02*
X261942Y346891D01*
X259023Y345682D01*
X256516Y343759D01*
X254593Y341252D01*
X253384Y338333D01*
X252971Y335200D01*
X253384Y332067D01*
X254593Y329148D01*
X256516Y326642D01*
X259023Y324718D01*
X261942Y323509D01*
X265075Y323097D01*
X268208Y323509D01*
X271127Y324718D01*
X273633Y326642D01*
X275557Y329148D01*
X276766Y332067D01*
X277178Y335200D01*
X276766Y338333D01*
X275557Y341252D01*
X273633Y343759D01*
X271127Y345682D01*
X268208Y346891D01*
X265075Y347304D01*
D02*
G37*
G36*
X195075Y344775D02*
X192036Y344476D01*
X189115Y343589D01*
X186422Y342150D01*
X184062Y340213D01*
X182125Y337853D01*
X180686Y335160D01*
X179799Y332239D01*
X179500Y329200D01*
X179799Y326161D01*
X180686Y323240D01*
X182125Y320547D01*
X184062Y318187D01*
X186422Y316250D01*
X188136Y315334D01*
Y313066D01*
X186422Y312150D01*
X184062Y310213D01*
X182125Y307853D01*
X180686Y305160D01*
X179799Y302239D01*
X179500Y299200D01*
X179799Y296161D01*
X180686Y293240D01*
X182125Y290547D01*
X184062Y288187D01*
X186422Y286250D01*
X189115Y284811D01*
X192036Y283924D01*
X195075Y283625D01*
X198113Y283924D01*
X201035Y284811D01*
X203728Y286250D01*
X206088Y288187D01*
X208025Y290547D01*
X209464Y293240D01*
X210351Y296161D01*
X210650Y299200D01*
X210351Y302239D01*
X209464Y305160D01*
X208025Y307853D01*
X206088Y310213D01*
X203728Y312150D01*
X202014Y313066D01*
Y315334D01*
X203728Y316250D01*
X206088Y318187D01*
X208025Y320547D01*
X209464Y323240D01*
X210351Y326161D01*
X210650Y329200D01*
X210351Y332239D01*
X209464Y335160D01*
X208025Y337853D01*
X206088Y340213D01*
X203728Y342150D01*
X201035Y343589D01*
X198113Y344476D01*
X195075Y344775D01*
D02*
G37*
G36*
X45700Y414312D02*
X42306Y413865D01*
X39144Y412556D01*
X36428Y410472D01*
X14728Y388772D01*
X12644Y386056D01*
X11335Y382894D01*
X10888Y379500D01*
X10888Y379500D01*
Y272450D01*
X10888Y272450D01*
X11335Y269056D01*
X12644Y265894D01*
X14728Y263178D01*
X36428Y241478D01*
X39144Y239394D01*
X42306Y238085D01*
X45700Y237638D01*
X49094Y238085D01*
X52256Y239394D01*
X54972Y241478D01*
X57055Y244194D01*
X58365Y247356D01*
X58812Y250750D01*
X58365Y254144D01*
X57055Y257306D01*
X54972Y260022D01*
X37112Y277881D01*
Y288171D01*
X39112Y288887D01*
X39687Y288187D01*
X42047Y286250D01*
X44740Y284811D01*
X47661Y283924D01*
X50700Y283625D01*
X53738Y283924D01*
X56660Y284811D01*
X59353Y286250D01*
X61713Y288187D01*
X63650Y290547D01*
X65089Y293240D01*
X65976Y296161D01*
X66275Y299200D01*
X65976Y302239D01*
X65089Y305160D01*
X63650Y307853D01*
X61713Y310213D01*
X59353Y312150D01*
X57639Y313066D01*
Y315334D01*
X59353Y316250D01*
X61713Y318187D01*
X63650Y320547D01*
X65089Y323240D01*
X65976Y326161D01*
X66275Y329200D01*
X65976Y332239D01*
X65089Y335160D01*
X63650Y337853D01*
X61713Y340213D01*
X59353Y342150D01*
X56660Y343589D01*
X53738Y344476D01*
X50700Y344775D01*
X47661Y344476D01*
X44740Y343589D01*
X42047Y342150D01*
X39687Y340213D01*
X39112Y339513D01*
X37112Y340229D01*
Y374069D01*
X54972Y391928D01*
X57056Y394644D01*
X58365Y397806D01*
X58812Y401200D01*
X58365Y404594D01*
X57056Y407756D01*
X54972Y410472D01*
X52256Y412556D01*
X49094Y413865D01*
X45700Y414312D01*
D02*
G37*
G36*
X130700Y315277D02*
X127563Y314968D01*
X124548Y314054D01*
X121768Y312568D01*
X119332Y310569D01*
X117332Y308132D01*
X115846Y305353D01*
X114931Y302337D01*
X114623Y299200D01*
X114931Y296063D01*
X115846Y293047D01*
X117332Y290268D01*
X119332Y287832D01*
X121768Y285832D01*
X124548Y284346D01*
X127563Y283431D01*
X130700Y283123D01*
X133837Y283431D01*
X136853Y284346D01*
X139632Y285832D01*
X142069Y287832D01*
X144068Y290268D01*
X145554Y293047D01*
X146468Y296063D01*
X146777Y299200D01*
X146468Y302337D01*
X145554Y305353D01*
X144068Y308132D01*
X142069Y310569D01*
X139632Y312568D01*
X136853Y314054D01*
X133837Y314968D01*
X130700Y315277D01*
D02*
G37*
G36*
X336500Y414312D02*
X333106Y413865D01*
X329944Y412556D01*
X327228Y410472D01*
X297978Y381222D01*
X295895Y378506D01*
X294585Y375344D01*
X294138Y371950D01*
X294138Y371950D01*
Y336806D01*
X272340Y315008D01*
X271938Y314968D01*
X268922Y314054D01*
X266143Y312568D01*
X263706Y310569D01*
X261707Y308132D01*
X260221Y305353D01*
X259307Y302337D01*
X258998Y299200D01*
X259307Y296063D01*
X260221Y293047D01*
X261707Y290268D01*
X261963Y289956D01*
Y251925D01*
X261963Y251925D01*
X262410Y248531D01*
X263720Y245369D01*
X265803Y242653D01*
X310478Y197978D01*
X310478Y197978D01*
X313194Y195895D01*
X316356Y194585D01*
X319750Y194138D01*
X386000D01*
X386000Y194138D01*
X389394Y194585D01*
X392556Y195895D01*
X395272Y197978D01*
X430772Y233478D01*
X430772Y233478D01*
X432855Y236194D01*
X434165Y239356D01*
X434612Y242750D01*
Y289956D01*
X434868Y290268D01*
X436354Y293047D01*
X437268Y296063D01*
X437577Y299200D01*
X437268Y302337D01*
X436354Y305353D01*
X434868Y308132D01*
X432868Y310569D01*
X430432Y312568D01*
X427653Y314054D01*
X424636Y314968D01*
X421500Y315277D01*
X418363Y314968D01*
X415347Y314054D01*
X412568Y312568D01*
X410131Y310569D01*
X408132Y308132D01*
X406646Y305353D01*
X405732Y302337D01*
X405423Y299200D01*
X405732Y296063D01*
X406646Y293047D01*
X408132Y290268D01*
X408388Y289956D01*
Y248181D01*
X380569Y220362D01*
X325181D01*
X288187Y257356D01*
Y289956D01*
X288443Y290268D01*
X289929Y293047D01*
X290844Y296063D01*
X290883Y296465D01*
X316522Y322103D01*
X318605Y324819D01*
X319915Y327981D01*
X320362Y331375D01*
X320362Y331375D01*
Y366519D01*
X345772Y391928D01*
X347855Y394644D01*
X349165Y397806D01*
X349612Y401200D01*
X349165Y404594D01*
X347855Y407756D01*
X345772Y410472D01*
X343056Y412556D01*
X339894Y413865D01*
X336500Y414312D01*
D02*
G37*
G36*
X187650Y483867D02*
X184126Y483402D01*
X180842Y482042D01*
X178022Y479878D01*
X175858Y477058D01*
X175818Y476961D01*
X111428Y412572D01*
X109345Y409856D01*
X108035Y406694D01*
X107588Y403300D01*
X107588Y403300D01*
Y340631D01*
X84978Y318022D01*
X82894Y315306D01*
X81585Y312144D01*
X81138Y308750D01*
X81138Y308750D01*
Y211200D01*
X81138Y211200D01*
X81585Y207806D01*
X82894Y204644D01*
X84978Y201928D01*
X111428Y175478D01*
X114144Y173395D01*
X117306Y172085D01*
X120700Y171638D01*
X124094Y172085D01*
X127256Y173395D01*
X129972Y175478D01*
X132055Y178194D01*
X133365Y181356D01*
X133812Y184750D01*
X133365Y188144D01*
X132055Y191306D01*
X129972Y194022D01*
X107362Y216631D01*
Y303319D01*
X129972Y325928D01*
X129972Y325928D01*
X132056Y328644D01*
X133365Y331806D01*
X133812Y335200D01*
X133812Y335200D01*
Y397869D01*
X194361Y458417D01*
X194458Y458458D01*
X197278Y460622D01*
X199442Y463442D01*
X200802Y466726D01*
X201266Y470250D01*
X200802Y473774D01*
X199442Y477058D01*
X197278Y479878D01*
X194458Y482042D01*
X191174Y483402D01*
X187650Y483867D01*
D02*
G37*
G36*
X50700Y194325D02*
X47661Y194026D01*
X44740Y193139D01*
X42047Y191700D01*
X39687Y189763D01*
X37750Y187403D01*
X36311Y184710D01*
X35424Y181789D01*
X35125Y178750D01*
X35424Y175711D01*
X36311Y172790D01*
X37750Y170097D01*
X39687Y167737D01*
X42047Y165800D01*
X43761Y164884D01*
Y162616D01*
X42047Y161700D01*
X39687Y159763D01*
X37750Y157403D01*
X36311Y154710D01*
X35424Y151789D01*
X35125Y148750D01*
X35424Y145711D01*
X36311Y142790D01*
X37750Y140097D01*
X39687Y137737D01*
X42047Y135800D01*
X44740Y134361D01*
X47661Y133474D01*
X50700Y133175D01*
X53738Y133474D01*
X56660Y134361D01*
X59353Y135800D01*
X61713Y137737D01*
X63650Y140097D01*
X65089Y142790D01*
X65976Y145711D01*
X66275Y148750D01*
X65976Y151789D01*
X65089Y154710D01*
X63650Y157403D01*
X61713Y159763D01*
X59353Y161700D01*
X57639Y162616D01*
Y164884D01*
X59353Y165800D01*
X61713Y167737D01*
X63650Y170097D01*
X65089Y172790D01*
X65976Y175711D01*
X66275Y178750D01*
X65976Y181789D01*
X65089Y184710D01*
X63650Y187403D01*
X61713Y189763D01*
X59353Y191700D01*
X56660Y193139D01*
X53738Y194026D01*
X50700Y194325D01*
D02*
G37*
G36*
X409770Y101705D02*
Y86520D01*
X424955D01*
X424761Y88485D01*
X423818Y91595D01*
X422286Y94461D01*
X420224Y96974D01*
X417711Y99036D01*
X414845Y100568D01*
X411735Y101511D01*
X409770Y101705D01*
D02*
G37*
G36*
X407230Y101705D02*
X405266Y101511D01*
X402155Y100568D01*
X399289Y99036D01*
X396776Y96974D01*
X394714Y94461D01*
X393182Y91595D01*
X392239Y88485D01*
X392045Y86520D01*
X407230D01*
Y101705D01*
D02*
G37*
G36*
Y83980D02*
X392045D01*
X392239Y82015D01*
X393182Y78905D01*
X394714Y76039D01*
X396776Y73526D01*
X399289Y71464D01*
X402155Y69932D01*
X405266Y68989D01*
X407230Y68795D01*
Y83980D01*
D02*
G37*
G36*
X424955D02*
X409770D01*
Y68795D01*
X411735Y68989D01*
X414845Y69932D01*
X417711Y71464D01*
X420224Y73526D01*
X422286Y76039D01*
X423818Y78905D01*
X424761Y82015D01*
X424955Y83980D01*
D02*
G37*
G36*
X366500Y101830D02*
X363265Y101511D01*
X360155Y100568D01*
X357289Y99036D01*
X354776Y96974D01*
X352714Y94461D01*
X351182Y91595D01*
X350239Y88485D01*
X349920Y85250D01*
X350239Y82015D01*
X351182Y78905D01*
X352714Y76039D01*
X354776Y73526D01*
X357289Y71464D01*
X360155Y69932D01*
X363265Y68989D01*
X366500Y68670D01*
X369735Y68989D01*
X372845Y69932D01*
X375711Y71464D01*
X378224Y73526D01*
X380286Y76039D01*
X381818Y78905D01*
X382761Y82015D01*
X383080Y85250D01*
X382761Y88485D01*
X381818Y91595D01*
X380286Y94461D01*
X378224Y96974D01*
X375711Y99036D01*
X372845Y100568D01*
X369735Y101511D01*
X366500Y101830D01*
D02*
G37*
G36*
X79000Y103252D02*
X40000D01*
Y64253D01*
X79000D01*
Y103252D01*
D02*
G37*
G36*
X214000Y103250D02*
X175000D01*
Y64250D01*
X214000D01*
Y103250D01*
D02*
G37*
G36*
X169000D02*
X130000D01*
Y64250D01*
X169000D01*
Y103250D01*
D02*
G37*
G36*
X124000D02*
X85000D01*
Y64250D01*
X124000D01*
Y103250D01*
D02*
G37*
G36*
X79000Y58253D02*
X40000D01*
Y19253D01*
X79000D01*
Y58253D01*
D02*
G37*
G36*
X214000Y58250D02*
X175000D01*
Y19250D01*
X214000D01*
Y58250D01*
D02*
G37*
G36*
X169000D02*
X130000D01*
Y19250D01*
X169000D01*
Y58250D01*
D02*
G37*
G36*
X124000D02*
X85000D01*
Y19250D01*
X124000D01*
Y58250D01*
D02*
G37*
G36*
X130700Y164827D02*
X127563Y164519D01*
X124547Y163604D01*
X121768Y162118D01*
X119332Y160119D01*
X117332Y157682D01*
X115846Y154903D01*
X114931Y151887D01*
X114623Y148750D01*
X114931Y145613D01*
X115846Y142597D01*
X117332Y139818D01*
X119332Y137381D01*
X121768Y135382D01*
X124547Y133896D01*
X127563Y132982D01*
X130700Y132673D01*
X133836Y132982D01*
X136853Y133896D01*
X139632Y135382D01*
X139944Y135638D01*
X211319D01*
X251388Y95569D01*
Y59000D01*
X251388Y59000D01*
X251835Y55606D01*
X253144Y52444D01*
X255228Y49728D01*
X283978Y20978D01*
X283978Y20978D01*
X286694Y18894D01*
X289856Y17585D01*
X293250Y17138D01*
X293250Y17138D01*
X314468D01*
X315289Y16464D01*
X318155Y14932D01*
X321265Y13989D01*
X324500Y13670D01*
X327735Y13989D01*
X330845Y14932D01*
X333711Y16464D01*
X336224Y18526D01*
X338286Y21039D01*
X339818Y23905D01*
X340761Y27015D01*
X341080Y30250D01*
X340761Y33485D01*
X339818Y36595D01*
X338286Y39461D01*
X336224Y41974D01*
X333711Y44036D01*
X330845Y45568D01*
X330599Y45642D01*
X330896Y47642D01*
X360104D01*
X360401Y45642D01*
X360155Y45568D01*
X357289Y44036D01*
X354776Y41974D01*
X352714Y39461D01*
X351182Y36595D01*
X350239Y33485D01*
X349920Y30250D01*
X350239Y27015D01*
X351182Y23905D01*
X352714Y21039D01*
X354776Y18526D01*
X357289Y16464D01*
X360155Y14932D01*
X363265Y13989D01*
X366500Y13670D01*
X369735Y13989D01*
X372845Y14932D01*
X375711Y16464D01*
X378224Y18526D01*
X380286Y21039D01*
X381818Y23905D01*
X382761Y27015D01*
X383080Y30250D01*
X382761Y33485D01*
X381818Y36595D01*
X380286Y39461D01*
X378224Y41974D01*
X375711Y44036D01*
X372845Y45568D01*
X372599Y45642D01*
X372896Y47642D01*
X383177D01*
X393545Y37274D01*
X393182Y36595D01*
X392239Y33485D01*
X391920Y30250D01*
X392239Y27015D01*
X393182Y23905D01*
X394714Y21039D01*
X396776Y18526D01*
X399289Y16464D01*
X402155Y14932D01*
X405266Y13989D01*
X408500Y13670D01*
X411735Y13989D01*
X414845Y14932D01*
X417711Y16464D01*
X420224Y18526D01*
X422286Y21039D01*
X423818Y23905D01*
X424761Y27015D01*
X425080Y30250D01*
X424761Y33485D01*
X423818Y36595D01*
X422286Y39461D01*
X420224Y41974D01*
X417711Y44036D01*
X414845Y45568D01*
X411735Y46511D01*
X408500Y46830D01*
X405266Y46511D01*
X402155Y45568D01*
X401476Y45205D01*
X389465Y57215D01*
X387646Y58431D01*
X385500Y58858D01*
X319823D01*
X311778Y66902D01*
X312544Y68750D01*
X341000D01*
Y101750D01*
X308000D01*
Y73294D01*
X306152Y72528D01*
X301858Y76823D01*
Y116677D01*
X307083Y121902D01*
X307197Y121917D01*
X308778Y122572D01*
X310136Y123614D01*
X311178Y124972D01*
X311833Y126553D01*
X312056Y128250D01*
X311833Y129947D01*
X311178Y131528D01*
X310136Y132886D01*
X308778Y133928D01*
X307197Y134583D01*
X305500Y134806D01*
X303803Y134583D01*
X302222Y133928D01*
X300864Y132886D01*
X299822Y131528D01*
X299167Y129947D01*
X299152Y129833D01*
X292285Y122965D01*
X291069Y121146D01*
X290642Y119000D01*
Y74500D01*
X291069Y72354D01*
X292285Y70535D01*
X313535Y49285D01*
X315354Y48069D01*
X317500Y47642D01*
X318104D01*
X318401Y45642D01*
X318155Y45568D01*
X315289Y44036D01*
X314468Y43362D01*
X298681D01*
X277612Y64431D01*
Y101000D01*
X277165Y104394D01*
X275856Y107556D01*
X273772Y110272D01*
X273772Y110272D01*
X226022Y158022D01*
X223306Y160105D01*
X220144Y161415D01*
X216750Y161862D01*
X216750Y161862D01*
X139944D01*
X139632Y162118D01*
X136853Y163604D01*
X133836Y164519D01*
X130700Y164827D01*
D02*
G37*
%LPD*%
G54D15*
X0Y0D02*
Y580000D01*
X470000D01*
Y0D02*
Y580000D01*
X0Y0D02*
X470000D01*
G54D31*
X296250Y119000D02*
X305500Y128250D01*
X296250Y74500D02*
Y119000D01*
Y74500D02*
X317500Y53250D01*
X385500D01*
X408500Y30250D01*
G54D32*
X307250Y371950D02*
X336500Y401200D01*
X307250Y331375D02*
Y371950D01*
X275075Y299200D02*
X307250Y331375D01*
X421500Y242750D02*
Y299200D01*
X386000Y207250D02*
X421500Y242750D01*
X319750Y207250D02*
X386000D01*
X275075Y251925D02*
X319750Y207250D01*
X275075Y251925D02*
Y299200D01*
X24000Y379500D02*
X45700Y401200D01*
X24000Y272450D02*
Y379500D01*
Y272450D02*
X45700Y250750D01*
X120700Y403300D02*
X187650Y470250D01*
X120700Y335200D02*
Y403300D01*
X94250Y308750D02*
X120700Y335200D01*
X94250Y211200D02*
Y308750D01*
Y211200D02*
X120700Y184750D01*
X130750Y148750D02*
X216750D01*
X264500Y101000D01*
Y59000D02*
Y101000D01*
Y59000D02*
X293250Y30250D01*
X324500D01*
G54D33*
X342000Y238500D02*
X365000Y261500D01*
Y445500D01*
X340250Y470250D02*
X365000Y445500D01*
X137250Y470250D02*
Y545250D01*
X140750Y507750D02*
X340250D01*
G54D34*
X190075Y401200D02*
D03*
X265075Y335200D02*
D03*
X336500Y401200D02*
D03*
X411500Y335200D02*
D03*
X45700Y401200D02*
D03*
X120700Y335200D02*
D03*
X45700Y250750D02*
D03*
X120700Y184750D02*
D03*
G54D35*
X275075Y299200D02*
D03*
X421500D02*
D03*
X130700D02*
D03*
X130700Y148750D02*
D03*
G54D36*
X195075Y299200D02*
D03*
Y329200D02*
D03*
X341500Y299200D02*
D03*
Y329200D02*
D03*
X50700Y299200D02*
D03*
Y329200D02*
D03*
X50700Y148750D02*
D03*
Y178750D02*
D03*
G54D37*
X194500Y38750D02*
D03*
X149500D02*
D03*
X104500D02*
D03*
X59500Y38753D02*
D03*
Y83752D02*
D03*
X104500Y83750D02*
D03*
X149500D02*
D03*
X194500D02*
D03*
G54D38*
X324500Y85250D02*
D03*
G54D39*
Y30250D02*
D03*
X366500Y85250D02*
D03*
Y30250D02*
D03*
X408500Y85250D02*
D03*
Y30250D02*
D03*
G54D40*
X340250Y545250D02*
D03*
Y470250D02*
D03*
Y507750D02*
D03*
X187650Y545250D02*
D03*
X137250D02*
D03*
X86850D02*
D03*
Y470250D02*
D03*
X137250D02*
D03*
X187650D02*
D03*
G54D41*
X305500Y128250D02*
D03*
X342000Y238500D02*
D03*
M02*
