G04*
G04 #@! TF.GenerationSoftware,Altium Limited,Altium Designer,18.1.6 (161)*
G04*
G04 Layer_Physical_Order=1*
G04 Layer_Color=255*
%FSLAX44Y44*%
%MOMM*%
G71*
G01*
G75*
%ADD11C,0.2540*%
%ADD13C,0.2000*%
%ADD15C,0.1270*%
%ADD17R,1.0000X0.7500*%
%ADD18R,1.2000X0.6000*%
%ADD19R,1.0160X1.0160*%
%ADD20R,1.3000X1.8000*%
%ADD21R,0.7500X1.0000*%
%ADD22R,1.7000X1.0000*%
%ADD23O,2.2000X0.5080*%
%ADD24R,1.6510X0.8890*%
%ADD25R,1.0160X1.0160*%
%ADD26R,0.6350X0.8890*%
%ADD27R,1.5000X1.1000*%
%ADD28R,1.6000X1.6000*%
%ADD29R,1.5000X1.6000*%
%ADD30R,6.5000X6.7000*%
%ADD31R,0.8890X0.6350*%
%ADD32R,1.5500X2.2500*%
%ADD33R,2.2500X1.5500*%
%ADD34R,0.8890X1.6510*%
%ADD60C,1.0000*%
%ADD61C,0.5080*%
%ADD62C,0.5000*%
%ADD63C,2.0000*%
%ADD64C,0.8000*%
%ADD65C,1.0000*%
%ADD66C,2.5000*%
%ADD67R,1.5000X1.5000*%
%ADD68C,1.5000*%
%ADD69C,1.8750*%
%ADD70C,1.3330*%
%ADD71C,2.8000*%
%ADD72C,0.7000*%
%ADD73C,1.6000*%
G36*
X586432Y291439D02*
X584431Y290760D01*
X583272Y292272D01*
X583272Y292272D01*
X564022Y311522D01*
X561306Y313605D01*
X558144Y314915D01*
X554750Y315362D01*
X554750Y315362D01*
X530820D01*
X530734Y315453D01*
X529956Y317362D01*
X530615Y318220D01*
X531320Y319923D01*
X531560Y321750D01*
X531320Y323577D01*
X530615Y325280D01*
X529492Y326743D01*
X528030Y327864D01*
X526327Y328570D01*
X524500Y328810D01*
X508040D01*
X507054Y330810D01*
X507178Y330972D01*
X507833Y332553D01*
X508056Y334250D01*
X507833Y335947D01*
X507358Y337093D01*
Y340322D01*
X515750D01*
Y361822D01*
X487250D01*
Y340322D01*
X496142D01*
Y337945D01*
X495822Y337528D01*
X495167Y335947D01*
X494944Y334250D01*
X495167Y332553D01*
X495822Y330972D01*
X495946Y330810D01*
X494960Y328810D01*
X421172D01*
X419833Y330803D01*
X420056Y332500D01*
X421245Y334205D01*
X421245D01*
X422848Y335164D01*
X423026Y335199D01*
X424845Y336415D01*
X436465Y348035D01*
X437681Y349854D01*
X438108Y352000D01*
Y391900D01*
X437681Y394046D01*
X436465Y395865D01*
X413744Y418586D01*
X414007Y419220D01*
X414432Y422450D01*
X414007Y425681D01*
X412760Y428691D01*
X410776Y431276D01*
X408191Y433260D01*
X405181Y434506D01*
X401950Y434932D01*
X398719Y434506D01*
X395709Y433260D01*
X393124Y431276D01*
X391141Y428691D01*
X389893Y425681D01*
X389468Y422450D01*
X389893Y419220D01*
X391141Y416209D01*
X393124Y413624D01*
X395709Y411641D01*
X398719Y410393D01*
X401950Y409968D01*
X405181Y410393D01*
X405814Y410656D01*
X426892Y389577D01*
Y354323D01*
X423245Y350676D01*
X421245Y351504D01*
Y361795D01*
X406355D01*
Y361228D01*
X356907D01*
X355447Y361833D01*
X353750Y362056D01*
X352053Y361833D01*
X350472Y361178D01*
X349114Y360136D01*
X348072Y358778D01*
X347417Y357197D01*
X347194Y355500D01*
X347417Y353803D01*
X348072Y352222D01*
X349114Y350864D01*
X350472Y349822D01*
X352053Y349167D01*
X353750Y348944D01*
X355447Y349167D01*
X357028Y349822D01*
X357276Y350012D01*
X406355D01*
Y349445D01*
X417972D01*
X418966Y347445D01*
X418291Y346555D01*
X406355D01*
Y334205D01*
X406355D01*
X406950Y332452D01*
X407167Y330803D01*
X405828Y328810D01*
X284174D01*
X243480Y369505D01*
X242018Y370627D01*
X240315Y371332D01*
X238487Y371573D01*
X198045D01*
Y371958D01*
X185695D01*
Y368809D01*
X183843Y368094D01*
X183622Y368118D01*
X182805Y369017D01*
Y371958D01*
X170455D01*
Y367897D01*
X169810Y366340D01*
X169570Y364512D01*
X169810Y362685D01*
X169820Y362662D01*
Y355060D01*
X101750D01*
X99923Y354820D01*
X98220Y354114D01*
X96757Y352992D01*
X96258Y352492D01*
X95135Y351030D01*
X94430Y349327D01*
X94190Y347500D01*
X94430Y345673D01*
X95135Y343970D01*
X96258Y342508D01*
X97720Y341386D01*
X99423Y340680D01*
X101250Y340440D01*
X103077Y340680D01*
X103704Y340940D01*
X170705D01*
Y340555D01*
X180492D01*
X181320Y338555D01*
X175445Y332680D01*
X147120D01*
X145293Y332440D01*
X143590Y331735D01*
X142128Y330612D01*
X118757Y307242D01*
X117635Y305780D01*
X116930Y304077D01*
X116690Y302250D01*
Y286621D01*
X66074D01*
Y213621D01*
X128714D01*
X129480Y211773D01*
X118228Y200522D01*
X117921Y200121D01*
X114074D01*
Y178121D01*
X135074D01*
Y180675D01*
X136772Y181978D01*
X159957Y205164D01*
X161805Y204398D01*
Y203818D01*
X167980D01*
Y208723D01*
X166286D01*
X165980Y209087D01*
X165401Y210723D01*
X167106Y212944D01*
X168415Y216106D01*
X168862Y219500D01*
Y245250D01*
X168415Y248644D01*
X167106Y251806D01*
X165022Y254522D01*
X162306Y256605D01*
X159144Y257915D01*
X155750Y258362D01*
X152356Y257915D01*
X149194Y256605D01*
X146478Y254522D01*
X144395Y251806D01*
X143085Y248644D01*
X142638Y245250D01*
Y224931D01*
X138921Y221215D01*
X137074Y221980D01*
Y286621D01*
X130810D01*
Y299326D01*
X150044Y318560D01*
X178370D01*
X180197Y318800D01*
X181900Y319506D01*
X183362Y320628D01*
X197113Y334378D01*
X198235Y335840D01*
X198940Y337543D01*
X199180Y339370D01*
Y340555D01*
X207305D01*
Y342548D01*
X209305Y343391D01*
X210195Y342524D01*
Y340555D01*
X213439D01*
X214282Y340206D01*
X216370Y339931D01*
X218269Y340181D01*
X226101D01*
X228000Y339931D01*
X230088Y340206D01*
X232034Y341012D01*
X233706Y342294D01*
X233956Y342544D01*
X235238Y344216D01*
X236044Y346162D01*
X236319Y348250D01*
X236044Y350338D01*
X235238Y352285D01*
X233956Y353956D01*
X232285Y355238D01*
X231768Y355452D01*
X232165Y357452D01*
X235563D01*
X276257Y316758D01*
X277720Y315636D01*
X279423Y314930D01*
X281250Y314690D01*
X306760D01*
X308038Y312690D01*
X307534Y311473D01*
X307202Y308950D01*
X307534Y306427D01*
X308508Y304076D01*
X310057Y302057D01*
X312076Y300508D01*
X314427Y299534D01*
X316950Y299202D01*
X319473Y299534D01*
X321824Y300508D01*
X323843Y302057D01*
X325392Y304076D01*
X326366Y306427D01*
X326698Y308950D01*
X326366Y311473D01*
X325862Y312690D01*
X327140Y314690D01*
X377571D01*
X378250Y312690D01*
X376728Y311522D01*
X376728Y311522D01*
X352819Y287612D01*
X247024D01*
X243630Y287165D01*
X242316Y286621D01*
X187145D01*
Y213621D01*
X258145D01*
Y261388D01*
X358250D01*
X358250Y261388D01*
X361644Y261835D01*
X364806Y263144D01*
X367522Y265228D01*
X391431Y289138D01*
X549319D01*
X560888Y277569D01*
Y249121D01*
X558888Y248293D01*
X545215Y261965D01*
X543396Y263181D01*
X541250Y263608D01*
X537750D01*
Y286621D01*
X466750D01*
Y213621D01*
X537750D01*
Y250741D01*
X539750Y251569D01*
X550142Y241177D01*
Y217295D01*
X548305D01*
Y204945D01*
X560888D01*
Y202055D01*
X554982D01*
X553629Y202233D01*
X553629Y202233D01*
X525250D01*
X521856Y201786D01*
X518694Y200476D01*
X518231Y200121D01*
X514750D01*
Y196792D01*
X513895Y195677D01*
X512585Y192515D01*
X512138Y189121D01*
X512585Y185727D01*
X513895Y182565D01*
X514750Y181450D01*
Y178121D01*
X518231D01*
X518694Y177766D01*
X521856Y176456D01*
X525250Y176009D01*
X548198D01*
X554388Y169819D01*
Y163000D01*
X552750D01*
Y141500D01*
X554388D01*
Y131500D01*
X553250D01*
Y110000D01*
X554388D01*
Y85750D01*
X554388Y85750D01*
X554500Y84898D01*
Y73750D01*
X561405D01*
X562194Y73145D01*
X565356Y71835D01*
X568750Y71388D01*
X572144Y71835D01*
X575306Y73145D01*
X576095Y73750D01*
X583000D01*
Y95250D01*
X580612D01*
Y110000D01*
X581750D01*
Y131500D01*
X580612D01*
Y141500D01*
X581250D01*
Y163000D01*
X580612D01*
Y175250D01*
X580612Y175250D01*
X580612Y175250D01*
Y181069D01*
X583272Y183728D01*
X583272Y183728D01*
X584431Y185240D01*
X586432Y184561D01*
Y3569D01*
X3569D01*
Y716932D01*
X586432D01*
Y291439D01*
D02*
G37*
%LPC*%
G36*
X508020Y712692D02*
Y705963D01*
X513500D01*
Y712692D01*
X508020D01*
D02*
G37*
G36*
X513500Y703423D02*
X508020D01*
Y696693D01*
X513500D01*
Y703423D01*
D02*
G37*
G36*
X426250Y698000D02*
X418520D01*
Y693270D01*
X426250D01*
Y698000D01*
D02*
G37*
G36*
X415980D02*
X408250D01*
Y693270D01*
X415980D01*
Y698000D01*
D02*
G37*
G36*
X554388Y699750D02*
X544157D01*
Y693020D01*
X554388D01*
Y699750D01*
D02*
G37*
G36*
X541617D02*
X531388D01*
Y693020D01*
X541617D01*
Y699750D01*
D02*
G37*
G36*
X406000Y697750D02*
X399270D01*
Y692270D01*
X406000D01*
Y697750D01*
D02*
G37*
G36*
X396730D02*
X390000D01*
Y692270D01*
X396730D01*
Y697750D01*
D02*
G37*
G36*
X236257Y697500D02*
X229527D01*
Y692020D01*
X236257D01*
Y697500D01*
D02*
G37*
G36*
X226987D02*
X220257D01*
Y692020D01*
X226987D01*
Y697500D01*
D02*
G37*
G36*
X570000Y706069D02*
X567912Y705794D01*
X565965Y704988D01*
X564294Y703706D01*
X563012Y702035D01*
X562206Y700088D01*
X561931Y698000D01*
X562206Y695912D01*
X563012Y693966D01*
X564294Y692294D01*
X565965Y691012D01*
X567912Y690206D01*
X570000Y689931D01*
X572088Y690206D01*
X574035Y691012D01*
X575706Y692294D01*
X576988Y693966D01*
X577794Y695912D01*
X578069Y698000D01*
X577794Y700088D01*
X576988Y702035D01*
X575706Y703706D01*
X574035Y704988D01*
X572088Y705794D01*
X570000Y706069D01*
D02*
G37*
G36*
X500000Y712692D02*
X498500D01*
X498000Y712692D01*
X485000D01*
Y696693D01*
X486101D01*
Y694500D01*
X477500D01*
Y688148D01*
X460995D01*
X459947Y688583D01*
X458250Y688806D01*
X456553Y688583D01*
X455505Y688148D01*
X449250D01*
Y698000D01*
X431250D01*
Y688148D01*
X426250D01*
Y690730D01*
X417250D01*
X408250D01*
Y686000D01*
Y678649D01*
X406000D01*
Y682250D01*
X406000Y682750D01*
Y684250D01*
X406000Y684750D01*
Y689730D01*
X390000D01*
Y684750D01*
X390000Y684250D01*
Y682750D01*
X388249Y681648D01*
X297090D01*
X294244Y684494D01*
X292412Y685719D01*
X290250Y686149D01*
X290250Y686149D01*
X237860D01*
X237860Y686149D01*
X237804Y686137D01*
X236257Y687406D01*
Y689480D01*
X220257D01*
Y684000D01*
X220257D01*
Y683198D01*
X218797Y681199D01*
X197410D01*
X195248Y680769D01*
X193416Y679544D01*
X192191Y677712D01*
X191761Y675550D01*
X192191Y673388D01*
X193416Y671556D01*
X195248Y670331D01*
X195811Y670220D01*
Y668180D01*
X195248Y668069D01*
X193416Y666844D01*
X192191Y665012D01*
X191761Y662850D01*
X192191Y660688D01*
X193416Y658856D01*
X195214Y657655D01*
X195248Y657458D01*
Y655796D01*
X195214Y655599D01*
X193416Y654398D01*
X192191Y652566D01*
X192014Y651674D01*
X205870D01*
X219726D01*
X219549Y652566D01*
X218324Y654398D01*
X217122Y655201D01*
X217729Y657202D01*
X238450D01*
Y651750D01*
X257450D01*
Y674852D01*
X266450D01*
Y665020D01*
X275950D01*
X285450D01*
Y674852D01*
X287910D01*
X290756Y672006D01*
X290756Y672006D01*
X292588Y670781D01*
X294750Y670351D01*
X294750Y670351D01*
X390000D01*
Y669250D01*
X396762D01*
X397006Y669006D01*
X397006Y669006D01*
X398838Y667782D01*
X401000Y667352D01*
X408250D01*
Y667000D01*
X426250D01*
Y676852D01*
X431250D01*
Y667000D01*
X449250D01*
Y676852D01*
X454608D01*
X454972Y676572D01*
X456553Y675917D01*
X458250Y675694D01*
X459947Y675917D01*
X461528Y676572D01*
X461892Y676852D01*
X477500D01*
Y670500D01*
X486101D01*
Y667490D01*
X484280D01*
Y651330D01*
X500060D01*
X500440Y651330D01*
X502060D01*
X502440Y651330D01*
X518220D01*
Y653102D01*
X531388D01*
Y650750D01*
X535471D01*
Y628164D01*
X534057Y626750D01*
X532260Y626750D01*
X531760Y626750D01*
X518760D01*
Y624398D01*
X513005D01*
Y625665D01*
X506898D01*
Y631010D01*
X509330D01*
Y647170D01*
X493170D01*
Y631010D01*
X495602D01*
Y625665D01*
X490495D01*
Y610775D01*
X513005D01*
Y613102D01*
X518760D01*
Y610750D01*
X531760D01*
X532260Y610750D01*
X533760D01*
X535471Y609252D01*
Y597195D01*
X534945D01*
Y582305D01*
X547295D01*
Y597195D01*
X546768D01*
Y610750D01*
X547260D01*
Y626750D01*
X546768D01*
Y650750D01*
X554388D01*
Y666750D01*
X531388D01*
Y664398D01*
X518220D01*
Y667490D01*
X502440D01*
X502060Y667490D01*
X500440D01*
X500060Y667490D01*
X497398D01*
Y695591D01*
X498500Y696693D01*
X500000D01*
X500500Y696693D01*
X505480D01*
Y704693D01*
Y712692D01*
X500500D01*
X500000Y712692D01*
D02*
G37*
G36*
X524500Y694500D02*
X516270D01*
Y683770D01*
X524500D01*
Y694500D01*
D02*
G37*
G36*
X513730D02*
X505500D01*
Y683770D01*
X513730D01*
Y694500D01*
D02*
G37*
G36*
X554388Y690480D02*
X544157D01*
Y683750D01*
X554388D01*
Y690480D01*
D02*
G37*
G36*
X541617D02*
X531388D01*
Y683750D01*
X541617D01*
Y690480D01*
D02*
G37*
G36*
X108074Y675830D02*
X91913D01*
Y673399D01*
X85250D01*
X85250Y673399D01*
X83088Y672969D01*
X81256Y671744D01*
X81256Y671744D01*
X26136Y616624D01*
X24911Y614792D01*
X24481Y612630D01*
X24481Y612630D01*
Y539566D01*
X24452Y539528D01*
X23797Y537947D01*
X23574Y536250D01*
X23797Y534553D01*
X24452Y532972D01*
X24481Y532934D01*
Y509445D01*
X23955D01*
Y494555D01*
Y491270D01*
X36305D01*
Y494555D01*
Y509445D01*
X35779D01*
Y532934D01*
X35808Y532972D01*
X36463Y534553D01*
X36686Y536250D01*
X36463Y537947D01*
X35808Y539528D01*
X35779Y539566D01*
Y610290D01*
X87590Y662102D01*
X91913D01*
Y659670D01*
X108074D01*
Y675830D01*
D02*
G37*
G36*
X524500Y681230D02*
X516270D01*
Y670500D01*
X524500D01*
Y681230D01*
D02*
G37*
G36*
X513730D02*
X505500D01*
Y670500D01*
X513730D01*
Y681230D01*
D02*
G37*
G36*
X285450Y662480D02*
X277220D01*
Y651750D01*
X285450D01*
Y662480D01*
D02*
G37*
G36*
X274680D02*
X266450D01*
Y651750D01*
X274680D01*
Y662480D01*
D02*
G37*
G36*
X395000Y639000D02*
X385270D01*
Y629270D01*
X395000D01*
Y639000D01*
D02*
G37*
G36*
X382730D02*
X373000D01*
Y629270D01*
X382730D01*
Y639000D01*
D02*
G37*
G36*
X429000Y635000D02*
X419770D01*
Y627770D01*
X429000D01*
Y635000D01*
D02*
G37*
G36*
X417230D02*
X408000D01*
Y627770D01*
X417230D01*
Y635000D01*
D02*
G37*
G36*
X429000Y625230D02*
X419770D01*
Y618000D01*
X429000D01*
Y625230D01*
D02*
G37*
G36*
X417230D02*
X408000D01*
Y618000D01*
X417230D01*
Y625230D01*
D02*
G37*
G36*
X395000Y626730D02*
X385270D01*
Y617000D01*
X395000D01*
Y626730D01*
D02*
G37*
G36*
X382730D02*
X373000D01*
Y617000D01*
X382730D01*
Y626730D01*
D02*
G37*
G36*
X128393Y684720D02*
X112233D01*
Y668940D01*
X112233Y668560D01*
Y666940D01*
X112233Y666560D01*
Y650780D01*
X127109D01*
X128649Y650273D01*
X129226Y649125D01*
X129452Y647988D01*
X130677Y646156D01*
X132509Y644931D01*
X133072Y644820D01*
Y642780D01*
X132509Y642669D01*
X130677Y641444D01*
X129452Y639612D01*
X129023Y637450D01*
X129452Y635288D01*
X130677Y633456D01*
X132509Y632231D01*
X134671Y631801D01*
X139053D01*
Y623070D01*
X128561Y612578D01*
X94500D01*
Y619000D01*
X73500D01*
Y598000D01*
X94500D01*
Y604422D01*
X130250D01*
X130250Y604422D01*
X131811Y604732D01*
X133134Y605616D01*
X146015Y618497D01*
X146899Y619820D01*
X147209Y621381D01*
X147209Y621381D01*
Y631801D01*
X151591D01*
X153753Y632231D01*
X155585Y633456D01*
X156810Y635288D01*
X157240Y637450D01*
X156810Y639612D01*
X155585Y641444D01*
X153753Y642669D01*
X153190Y642780D01*
Y644820D01*
X153753Y644931D01*
X155459Y646072D01*
X156911D01*
X162282Y640701D01*
Y626782D01*
X158280D01*
Y610622D01*
X174060D01*
X174440Y610622D01*
X176060D01*
X176440Y610622D01*
X192220D01*
Y614624D01*
X197702D01*
X197703Y614624D01*
X199263Y614935D01*
X200586Y615819D01*
X208753Y623985D01*
X208753Y623985D01*
X209637Y625308D01*
X209947Y626869D01*
X209947Y626869D01*
Y632056D01*
X214329D01*
X216491Y632486D01*
X218323Y633710D01*
X219548Y635542D01*
X219977Y637704D01*
X219548Y639866D01*
X218323Y641698D01*
X216491Y642923D01*
X215929Y643034D01*
Y645073D01*
X216492Y645185D01*
X218324Y646410D01*
X219549Y648242D01*
X219726Y649134D01*
X205870D01*
X192014D01*
X192191Y648242D01*
X193416Y646410D01*
X195248Y645185D01*
X195810Y645074D01*
Y643035D01*
X195247Y642923D01*
X193415Y641698D01*
X192190Y639866D01*
X191761Y637704D01*
X192190Y635542D01*
X193415Y633710D01*
X195247Y632486D01*
X197409Y632056D01*
X201791D01*
Y628558D01*
X196013Y622781D01*
X192220D01*
Y626782D01*
X176440D01*
X176060Y626782D01*
X174440D01*
X174060Y626782D01*
X170438D01*
Y642390D01*
X170438Y642390D01*
X170128Y643951D01*
X169244Y645274D01*
X169244Y645274D01*
X161484Y653034D01*
X160161Y653918D01*
X158600Y654228D01*
X158600Y654228D01*
X155459D01*
X153753Y655369D01*
X153190Y655480D01*
Y657520D01*
X153753Y657632D01*
X155585Y658856D01*
X156810Y660688D01*
X157240Y662850D01*
X156810Y665012D01*
X155585Y666844D01*
X153753Y668069D01*
X153190Y668180D01*
Y670220D01*
X153753Y670331D01*
X155585Y671556D01*
X156810Y673388D01*
X157240Y675550D01*
X156810Y677712D01*
X155585Y679544D01*
X153753Y680769D01*
X151591Y681199D01*
X134671D01*
X134466Y681158D01*
X128393D01*
Y684720D01*
D02*
G37*
G36*
X85270Y593523D02*
Y584370D01*
X94423D01*
X94230Y585841D01*
X93172Y588395D01*
X91489Y590589D01*
X89295Y592272D01*
X86741Y593330D01*
X85270Y593523D01*
D02*
G37*
G36*
X82730Y593523D02*
X81259Y593330D01*
X78705Y592272D01*
X76511Y590589D01*
X74828Y588395D01*
X73770Y585841D01*
X73577Y584370D01*
X82730D01*
Y593523D01*
D02*
G37*
G36*
X513005Y597725D02*
X490495D01*
Y582835D01*
X496642D01*
Y531000D01*
X466750D01*
Y502569D01*
X318750D01*
X316662Y502294D01*
X314715Y501488D01*
X313044Y500206D01*
X284544Y471706D01*
X283262Y470034D01*
X282456Y468088D01*
X282181Y466000D01*
Y365000D01*
X282456Y362912D01*
X283262Y360965D01*
X284544Y359294D01*
X286215Y358012D01*
X288162Y357206D01*
X290250Y356931D01*
X292338Y357206D01*
X294284Y358012D01*
X295956Y359294D01*
X297238Y360965D01*
X298044Y362912D01*
X298319Y365000D01*
Y462658D01*
X322092Y486431D01*
X466750D01*
Y458000D01*
X537750D01*
Y531000D01*
X507858D01*
Y582835D01*
X513005D01*
Y584142D01*
X519705D01*
Y582305D01*
X532055D01*
Y597195D01*
X519705D01*
Y595358D01*
X513005D01*
Y597725D01*
D02*
G37*
G36*
X395000Y603000D02*
X373000D01*
Y581092D01*
X373000Y581000D01*
X372777Y579092D01*
X362455D01*
Y575726D01*
X266398D01*
X266397Y575726D01*
X264837Y575415D01*
X263514Y574531D01*
X230061Y541078D01*
X124500D01*
X122939Y540768D01*
X121616Y539884D01*
X121616Y539884D01*
X119366Y537634D01*
X118482Y536311D01*
X118172Y534750D01*
X118172Y534750D01*
Y531000D01*
X65074D01*
Y458000D01*
X136074D01*
Y531000D01*
X136074D01*
X136263Y532922D01*
X185956D01*
X186145Y531000D01*
X186145Y530922D01*
Y458000D01*
X257145D01*
Y531000D01*
X250881D01*
X250115Y532848D01*
X259689Y542422D01*
X388750D01*
X388750Y542422D01*
X390311Y542732D01*
X391634Y543616D01*
X406514Y558496D01*
X406514Y558496D01*
X407398Y559819D01*
X407708Y561380D01*
Y564202D01*
X409305D01*
Y579092D01*
X396955D01*
Y564202D01*
X397856D01*
X398685Y562202D01*
X387061Y550578D01*
X258000D01*
X258000Y550578D01*
X256439Y550268D01*
X255116Y549384D01*
X255116Y549384D01*
X241116Y535384D01*
X240232Y534061D01*
X239922Y532500D01*
X238702Y531000D01*
X232341D01*
X232144Y533000D01*
X233311Y533232D01*
X234634Y534116D01*
X268087Y567569D01*
X362455D01*
Y564202D01*
X374805D01*
Y579000D01*
X374805Y579092D01*
X375028Y581000D01*
X377472D01*
X377695Y579092D01*
X377695D01*
Y564202D01*
X390045D01*
Y579092D01*
X390045D01*
X390268Y581000D01*
X395000D01*
Y603000D01*
D02*
G37*
G36*
X183330Y606463D02*
X167170D01*
Y590303D01*
X168892D01*
Y587369D01*
X168822Y587278D01*
X168167Y585697D01*
X167944Y584000D01*
X168167Y582303D01*
X168822Y580722D01*
X169864Y579364D01*
X171222Y578322D01*
X172803Y577667D01*
X174500Y577444D01*
X176197Y577667D01*
X177778Y578322D01*
X179136Y579364D01*
X180178Y580722D01*
X180833Y582303D01*
X181056Y584000D01*
X180833Y585697D01*
X180178Y587278D01*
X180108Y587369D01*
Y590303D01*
X183330D01*
Y606463D01*
D02*
G37*
G36*
X82730Y581830D02*
X73577D01*
X73770Y580359D01*
X74828Y577805D01*
X76511Y575611D01*
X78705Y573928D01*
X81259Y572870D01*
X82730Y572677D01*
Y581830D01*
D02*
G37*
G36*
X94423D02*
X85270D01*
Y572677D01*
X86741Y572870D01*
X89295Y573928D01*
X91489Y575611D01*
X93172Y577805D01*
X94230Y580359D01*
X94423Y581830D01*
D02*
G37*
G36*
X429000Y602000D02*
X408000D01*
Y585000D01*
X414792D01*
Y579092D01*
X412195D01*
Y564202D01*
X424545D01*
Y579092D01*
X422948D01*
Y585000D01*
X429000D01*
Y602000D01*
D02*
G37*
G36*
X316950Y534198D02*
X314427Y533866D01*
X312076Y532892D01*
X310057Y531343D01*
X308508Y529324D01*
X307534Y526973D01*
X307202Y524450D01*
X307534Y521927D01*
X308508Y519576D01*
X310057Y517557D01*
X312076Y516008D01*
X314427Y515034D01*
X316950Y514702D01*
X319473Y515034D01*
X321824Y516008D01*
X323843Y517557D01*
X325392Y519576D01*
X326366Y521927D01*
X326698Y524450D01*
X326366Y526973D01*
X325392Y529324D01*
X323843Y531343D01*
X321824Y532892D01*
X319473Y533866D01*
X316950Y534198D01*
D02*
G37*
G36*
X153000Y522556D02*
X151303Y522333D01*
X149722Y521678D01*
X148364Y520636D01*
X147322Y519278D01*
X146667Y517697D01*
X146444Y516000D01*
X146667Y514303D01*
X147322Y512722D01*
X147522Y512461D01*
Y509445D01*
X146955D01*
Y494555D01*
Y491270D01*
X159305D01*
Y494555D01*
Y509445D01*
X158738D01*
Y512867D01*
X159333Y514303D01*
X159556Y516000D01*
X159333Y517697D01*
X158678Y519278D01*
X157636Y520636D01*
X156278Y521678D01*
X154697Y522333D01*
X153000Y522556D01*
D02*
G37*
G36*
X174545Y509445D02*
X162195D01*
Y494555D01*
Y483625D01*
X161560Y482990D01*
X159940D01*
X159305Y483625D01*
Y488730D01*
X146955D01*
Y482990D01*
X143780D01*
Y476180D01*
X151860D01*
Y474910D01*
X153130D01*
Y466830D01*
X159560D01*
X159940Y466830D01*
X161560D01*
X161940Y466830D01*
X177720D01*
Y482990D01*
X174545D01*
Y494555D01*
Y509445D01*
D02*
G37*
G36*
X51545D02*
X39195D01*
Y494555D01*
Y483625D01*
X38560Y482990D01*
X36940D01*
X36305Y483625D01*
Y488730D01*
X23955D01*
Y482990D01*
X20780D01*
Y476180D01*
X28860D01*
Y474910D01*
X30130D01*
Y466830D01*
X36560D01*
X36940Y466830D01*
X38560D01*
X38940Y466830D01*
X54720D01*
Y482990D01*
X51545D01*
Y494555D01*
Y509445D01*
D02*
G37*
G36*
X27590Y473640D02*
X20780D01*
Y466830D01*
X27590D01*
Y473640D01*
D02*
G37*
G36*
X150590D02*
X143780D01*
Y466830D01*
X150590D01*
Y473640D01*
D02*
G37*
G36*
X391950Y468198D02*
X389427Y467866D01*
X387076Y466892D01*
X385057Y465343D01*
X383508Y463324D01*
X382534Y460973D01*
X382202Y458450D01*
X382534Y455927D01*
X383508Y453576D01*
X385057Y451557D01*
X387076Y450008D01*
X389427Y449034D01*
X391950Y448702D01*
X394473Y449034D01*
X396824Y450008D01*
X398843Y451557D01*
X400392Y453576D01*
X401366Y455927D01*
X401698Y458450D01*
X401366Y460973D01*
X400392Y463324D01*
X398843Y465343D01*
X396824Y466892D01*
X394473Y467866D01*
X391950Y468198D01*
D02*
G37*
G36*
X321950Y464932D02*
X318720Y464506D01*
X315709Y463260D01*
X313124Y461276D01*
X311140Y458691D01*
X309893Y455681D01*
X309468Y452450D01*
X309893Y449220D01*
X311140Y446209D01*
X313124Y443624D01*
X315709Y441641D01*
X318720Y440393D01*
X321950Y439968D01*
X325181Y440393D01*
X328191Y441641D01*
X330776Y443624D01*
X332760Y446209D01*
X334007Y449220D01*
X334432Y452450D01*
X334007Y455681D01*
X332760Y458691D01*
X330776Y461276D01*
X328191Y463260D01*
X325181Y464506D01*
X321950Y464932D01*
D02*
G37*
G36*
X470185Y417445D02*
X465280D01*
Y411270D01*
X470185D01*
Y417445D01*
D02*
G37*
G36*
X462740D02*
X457835D01*
Y411270D01*
X462740D01*
Y417445D01*
D02*
G37*
G36*
X321950Y434932D02*
X318720Y434506D01*
X315709Y433260D01*
X313124Y431276D01*
X311140Y428691D01*
X309893Y425681D01*
X309468Y422450D01*
X309893Y419220D01*
X311140Y416209D01*
X313124Y413624D01*
X315709Y411641D01*
X318720Y410393D01*
X321950Y409968D01*
X325181Y410393D01*
X328191Y411641D01*
X330776Y413624D01*
X332760Y416209D01*
X334007Y419220D01*
X334432Y422450D01*
X334007Y425681D01*
X332760Y428691D01*
X330776Y431276D01*
X328191Y433260D01*
X325181Y434506D01*
X321950Y434932D01*
D02*
G37*
G36*
X168830Y462670D02*
X152670D01*
Y446510D01*
X153554D01*
X155101Y445500D01*
X155532Y443338D01*
X156756Y441506D01*
X168756Y429506D01*
X168756Y429506D01*
X170588Y428282D01*
X172750Y427851D01*
X172750Y427851D01*
X188145D01*
Y422500D01*
X192996D01*
Y412605D01*
X192996Y412605D01*
X193426Y410443D01*
X194651Y408611D01*
X199256Y404006D01*
X199256Y404006D01*
X201088Y402781D01*
X203250Y402351D01*
X203250Y402351D01*
X207205D01*
Y400555D01*
X216281D01*
X217046Y398707D01*
X213908Y395569D01*
X117939D01*
Y408000D01*
Y416454D01*
X123985Y422500D01*
X134074D01*
Y444500D01*
X113074D01*
Y434411D01*
X104164Y425502D01*
X102882Y423831D01*
X102076Y421885D01*
X101801Y419796D01*
Y417032D01*
X100805Y415445D01*
X99801Y415445D01*
X88455D01*
Y413648D01*
X83340D01*
X83222Y413766D01*
Y422500D01*
X88074D01*
Y444500D01*
X67074D01*
Y439149D01*
X48340D01*
X43398Y444090D01*
Y446510D01*
X45830D01*
Y462670D01*
X29670D01*
Y446510D01*
X32102D01*
Y441750D01*
X32101Y441750D01*
X32531Y439588D01*
X33756Y437756D01*
X42006Y429506D01*
X42006Y429506D01*
X43838Y428282D01*
X46000Y427851D01*
X67074D01*
Y422500D01*
X71925D01*
Y411427D01*
X71925Y411426D01*
X72355Y409265D01*
X73580Y407432D01*
X77006Y404006D01*
X77006Y404006D01*
X78838Y402781D01*
X81000Y402351D01*
X81000Y402351D01*
X88455D01*
Y400555D01*
X99801D01*
X100805Y400555D01*
X101801Y398968D01*
Y394962D01*
X100044Y393206D01*
X23794Y316956D01*
X22512Y315285D01*
X21706Y313338D01*
X21431Y311250D01*
Y152750D01*
X21706Y150662D01*
X22512Y148715D01*
X23794Y147044D01*
X44544Y126294D01*
X46216Y125012D01*
X48162Y124206D01*
X50250Y123931D01*
X108037D01*
X108797Y122510D01*
X110921Y119921D01*
X113510Y117797D01*
X116463Y116218D01*
X119667Y115246D01*
X123000Y114918D01*
X126333Y115246D01*
X129537Y116218D01*
X132490Y117797D01*
X135079Y119921D01*
X137203Y122510D01*
X138782Y125463D01*
X139754Y128667D01*
X140082Y132000D01*
X139754Y135333D01*
X138782Y138537D01*
X137203Y141490D01*
X135079Y144079D01*
X132490Y146203D01*
X129537Y147782D01*
X126333Y148754D01*
X123000Y149082D01*
X119667Y148754D01*
X116463Y147782D01*
X113510Y146203D01*
X110921Y144079D01*
X108797Y141490D01*
X108037Y140069D01*
X53592D01*
X37569Y156092D01*
Y307908D01*
X109092Y379431D01*
X217250D01*
X219338Y379706D01*
X221285Y380512D01*
X222956Y381794D01*
X234326Y393164D01*
X235608Y394836D01*
X236414Y396782D01*
X236689Y398870D01*
Y408000D01*
Y414133D01*
X245056Y422500D01*
X255145D01*
Y444500D01*
X234145D01*
Y434411D01*
X222914Y423181D01*
X221632Y421510D01*
X220826Y419563D01*
X220551Y417475D01*
Y417032D01*
X219555Y415445D01*
X207205D01*
Y415445D01*
X205205Y414912D01*
X204293Y415664D01*
Y422500D01*
X209145D01*
Y444500D01*
X188145D01*
Y439149D01*
X175090D01*
X168507Y445731D01*
X168830Y446510D01*
X168830D01*
Y462670D01*
D02*
G37*
G36*
X489750Y444500D02*
X468750D01*
Y422500D01*
X474896D01*
Y417445D01*
X473075D01*
Y402555D01*
Y393653D01*
X472992Y393394D01*
X471075Y392203D01*
X470503Y392478D01*
X470185Y392886D01*
Y402555D01*
Y408730D01*
X457835D01*
Y402555D01*
Y391255D01*
X456565D01*
Y368745D01*
X458402D01*
Y361822D01*
X451750D01*
Y340322D01*
X480250D01*
Y361822D01*
X469618D01*
Y368745D01*
X471455D01*
Y387657D01*
X472032Y389464D01*
X472614Y389794D01*
Y389794D01*
X473075Y390055D01*
X473395Y390055D01*
X483922D01*
X484505Y390055D01*
X484505Y389636D01*
X484505Y381270D01*
X490680D01*
Y391255D01*
X486008D01*
X485425Y391255D01*
X485425Y391674D01*
X485425Y402555D01*
Y417445D01*
X483604D01*
Y422500D01*
X489750D01*
Y444500D01*
D02*
G37*
G36*
X493220Y391255D02*
Y381270D01*
X499395D01*
Y391255D01*
X493220D01*
D02*
G37*
G36*
X535750Y444500D02*
X514750D01*
Y422500D01*
X528319D01*
X532642Y418177D01*
Y404250D01*
X527500D01*
Y402862D01*
X516250D01*
X512856Y402415D01*
X509694Y401105D01*
X506978Y399022D01*
X504894Y396306D01*
X503585Y393144D01*
X503138Y389750D01*
X503585Y386356D01*
X504894Y383194D01*
X506978Y380478D01*
X509694Y378395D01*
X512856Y377085D01*
X516250Y376638D01*
X527500D01*
Y375750D01*
X549000D01*
Y404250D01*
X543858D01*
Y420500D01*
X543431Y422646D01*
X542215Y424465D01*
X535750Y430931D01*
Y444500D01*
D02*
G37*
G36*
X499395Y378730D02*
X493220D01*
Y368745D01*
X499395D01*
Y378730D01*
D02*
G37*
G36*
X490680D02*
X484505D01*
Y368745D01*
X490680D01*
Y378730D01*
D02*
G37*
G36*
X549000Y368750D02*
X539520D01*
Y355770D01*
X549000D01*
Y368750D01*
D02*
G37*
G36*
X536980D02*
X527500D01*
Y355770D01*
X536980D01*
Y368750D01*
D02*
G37*
G36*
X549000Y353230D02*
X539520D01*
Y340250D01*
X549000D01*
Y353230D01*
D02*
G37*
G36*
X536980D02*
X527500D01*
Y340250D01*
X536980D01*
Y353230D01*
D02*
G37*
G36*
X391950Y252698D02*
X389427Y252366D01*
X387076Y251392D01*
X385057Y249843D01*
X383508Y247824D01*
X382534Y245473D01*
X382202Y242950D01*
X382534Y240427D01*
X383508Y238076D01*
X385057Y236057D01*
X387076Y234508D01*
X389427Y233534D01*
X391950Y233202D01*
X394473Y233534D01*
X396824Y234508D01*
X398843Y236057D01*
X400392Y238076D01*
X401366Y240427D01*
X401698Y242950D01*
X401366Y245473D01*
X400392Y247824D01*
X398843Y249843D01*
X396824Y251392D01*
X394473Y252366D01*
X391950Y252698D01*
D02*
G37*
G36*
X321950Y249432D02*
X318720Y249007D01*
X315709Y247759D01*
X313124Y245776D01*
X311140Y243191D01*
X309893Y240180D01*
X309468Y236950D01*
X309893Y233720D01*
X311140Y230709D01*
X313124Y228124D01*
X315709Y226140D01*
X318720Y224893D01*
X321950Y224468D01*
X325181Y224893D01*
X328191Y226140D01*
X330776Y228124D01*
X332760Y230709D01*
X334007Y233720D01*
X334432Y236950D01*
X334007Y240180D01*
X332760Y243191D01*
X330776Y245776D01*
X328191Y247759D01*
X325181Y249007D01*
X321950Y249432D01*
D02*
G37*
G36*
X457695Y210545D02*
X451520D01*
Y205640D01*
X457695D01*
Y210545D01*
D02*
G37*
G36*
X448980D02*
X442805D01*
Y205640D01*
X448980D01*
Y210545D01*
D02*
G37*
G36*
X55085Y209295D02*
X48910D01*
Y204390D01*
X55085D01*
Y209295D01*
D02*
G37*
G36*
X46370D02*
X40195D01*
Y204390D01*
X46370D01*
Y209295D01*
D02*
G37*
G36*
X176695Y208723D02*
X170520D01*
Y203818D01*
X176695D01*
Y208723D01*
D02*
G37*
G36*
X457695Y203100D02*
X451520D01*
Y198195D01*
X457695D01*
Y203100D01*
D02*
G37*
G36*
X448980D02*
X442805D01*
Y198195D01*
X448980D01*
Y203100D01*
D02*
G37*
G36*
X290250Y241306D02*
X288553Y241083D01*
X286972Y240428D01*
X285614Y239386D01*
X284572Y238028D01*
X283917Y236447D01*
X283694Y234750D01*
X283917Y233053D01*
X284572Y231472D01*
X285142Y230729D01*
Y198316D01*
X283142Y197637D01*
X282272Y198772D01*
X279556Y200856D01*
X276394Y202165D01*
X273000Y202612D01*
X246024D01*
X246024Y202612D01*
X242630Y202165D01*
X239468Y200856D01*
X238511Y200121D01*
X235145D01*
Y196792D01*
X234289Y195677D01*
X232980Y192515D01*
X232533Y189121D01*
X232980Y185727D01*
X234289Y182565D01*
X235145Y181450D01*
Y178121D01*
X238626D01*
X239089Y177766D01*
X242251Y176455D01*
X245645Y176009D01*
X248524Y176388D01*
X273000D01*
X276394Y176835D01*
X279556Y178144D01*
X282272Y180228D01*
X283142Y181363D01*
X285142Y180684D01*
Y171858D01*
X280000D01*
X277854Y171431D01*
X276035Y170215D01*
X264785Y158965D01*
X263569Y157146D01*
X263142Y155000D01*
Y144533D01*
X261259Y143859D01*
X261079Y144079D01*
X258490Y146203D01*
X255537Y147782D01*
X252333Y148754D01*
X249000Y149082D01*
X245667Y148754D01*
X242463Y147782D01*
X239510Y146203D01*
X236921Y144079D01*
X234797Y141490D01*
X233218Y138537D01*
X232246Y135333D01*
X231918Y132000D01*
X232246Y128667D01*
X233218Y125463D01*
X234797Y122510D01*
X236921Y119921D01*
X239510Y117797D01*
X242463Y116218D01*
X245667Y115246D01*
X249000Y114918D01*
X252333Y115246D01*
X255537Y116218D01*
X258490Y117797D01*
X260773Y119670D01*
X262024Y119318D01*
X262777Y118837D01*
X262926Y117606D01*
X256177Y110858D01*
X195323D01*
X190108Y116073D01*
Y123297D01*
X192108Y123798D01*
X192797Y122510D01*
X194921Y119921D01*
X197510Y117797D01*
X200463Y116218D01*
X203667Y115246D01*
X205730Y115043D01*
Y132000D01*
Y148957D01*
X203667Y148754D01*
X200463Y147782D01*
X197510Y146203D01*
X194921Y144079D01*
X192797Y141490D01*
X192108Y140202D01*
X190108Y140702D01*
Y163927D01*
X200215Y174035D01*
X201431Y175854D01*
X201858Y178000D01*
X203808Y178121D01*
X210145D01*
Y200121D01*
X189145D01*
Y178825D01*
X182177Y171858D01*
X172048D01*
Y181133D01*
X176695D01*
Y193483D01*
X166466D01*
X166440Y193488D01*
X166414Y193483D01*
X161805D01*
Y190843D01*
X161259Y190026D01*
X160832Y187880D01*
Y171858D01*
X84181D01*
Y178121D01*
X89074D01*
Y200121D01*
X68074D01*
Y178121D01*
X72966D01*
Y171858D01*
X60823D01*
X53248Y179433D01*
Y181705D01*
X55085D01*
Y194055D01*
X40195D01*
Y181705D01*
X42032D01*
Y177110D01*
X42459Y174964D01*
X43675Y173145D01*
X54535Y162285D01*
X56354Y161069D01*
X58500Y160642D01*
X178892D01*
Y144728D01*
X178181Y144473D01*
X176892Y144232D01*
X174490Y146203D01*
X171537Y147782D01*
X168333Y148754D01*
X165000Y149082D01*
X161667Y148754D01*
X158463Y147782D01*
X155510Y146203D01*
X152921Y144079D01*
X150797Y141490D01*
X149218Y138537D01*
X148246Y135333D01*
X147918Y132000D01*
X148246Y128667D01*
X149218Y125463D01*
X150797Y122510D01*
X152921Y119921D01*
X155510Y117797D01*
X158463Y116218D01*
X161667Y115246D01*
X165000Y114918D01*
X168333Y115246D01*
X171537Y116218D01*
X174490Y117797D01*
X176892Y119768D01*
X178181Y119527D01*
X178892Y119272D01*
Y113750D01*
X179319Y111604D01*
X180535Y109785D01*
X189035Y101285D01*
X190854Y100069D01*
X193000Y99642D01*
X258500D01*
X260646Y100069D01*
X262465Y101285D01*
X272715Y111535D01*
X273425Y112597D01*
X275425Y111990D01*
Y83924D01*
X275218Y83537D01*
X274246Y80333D01*
X273918Y77000D01*
X274246Y73667D01*
X275218Y70463D01*
X276797Y67510D01*
X278921Y64921D01*
X281510Y62797D01*
X284463Y61218D01*
X287667Y60246D01*
X291000Y59918D01*
X294333Y60246D01*
X297537Y61218D01*
X300490Y62797D01*
X303079Y64921D01*
X305203Y67510D01*
X306782Y70463D01*
X307754Y73667D01*
X308082Y77000D01*
X307754Y80333D01*
X306782Y83537D01*
X306575Y83924D01*
Y125076D01*
X306782Y125463D01*
X307754Y128667D01*
X308082Y132000D01*
X307754Y135333D01*
X306782Y138537D01*
X305203Y141490D01*
X303079Y144079D01*
X300490Y146203D01*
X297537Y147782D01*
X294333Y148754D01*
X291000Y149082D01*
X287667Y148754D01*
X284463Y147782D01*
X281510Y146203D01*
X278921Y144079D01*
X276797Y141490D01*
X276358Y140669D01*
X274358Y141170D01*
Y152677D01*
X282323Y160642D01*
X402193D01*
X402800Y158642D01*
X402535Y158465D01*
X392535Y148465D01*
X391319Y146646D01*
X390892Y144500D01*
Y142495D01*
X390356Y142176D01*
X388892Y141869D01*
X387079Y144079D01*
X384490Y146203D01*
X381537Y147782D01*
X378333Y148754D01*
X375000Y149082D01*
X371667Y148754D01*
X368463Y147782D01*
X365510Y146203D01*
X362921Y144079D01*
X360797Y141490D01*
X359218Y138537D01*
X358246Y135333D01*
X357918Y132000D01*
X358246Y128667D01*
X359218Y125463D01*
X360797Y122510D01*
X362921Y119921D01*
X365510Y117797D01*
X368463Y116218D01*
X371667Y115246D01*
X375000Y114918D01*
X378333Y115246D01*
X381537Y116218D01*
X384490Y117797D01*
X387079Y119921D01*
X388892Y122130D01*
X390356Y121824D01*
X390892Y121505D01*
Y100823D01*
X382394Y92324D01*
X381537Y92782D01*
X378333Y93754D01*
X375000Y94082D01*
X371667Y93754D01*
X368463Y92782D01*
X365510Y91203D01*
X362921Y89079D01*
X360797Y86490D01*
X359218Y83537D01*
X358246Y80333D01*
X357918Y77000D01*
X358246Y73667D01*
X359218Y70463D01*
X360797Y67510D01*
X362921Y64921D01*
X365510Y62797D01*
X368463Y61218D01*
X371667Y60246D01*
X375000Y59918D01*
X378333Y60246D01*
X381537Y61218D01*
X384490Y62797D01*
X387079Y64921D01*
X389203Y67510D01*
X390782Y70463D01*
X391754Y73667D01*
X392082Y77000D01*
X391754Y80333D01*
X390782Y83537D01*
X390324Y84394D01*
X400465Y94535D01*
X401681Y96354D01*
X402108Y98500D01*
Y120196D01*
X404108Y120912D01*
X404921Y119921D01*
X407510Y117797D01*
X410463Y116218D01*
X413667Y115246D01*
X415379Y115077D01*
X433228Y97228D01*
X433228Y97228D01*
X435944Y95145D01*
X439106Y93835D01*
X442500Y93388D01*
X449354D01*
X449855Y91388D01*
X449510Y91203D01*
X446921Y89079D01*
X444797Y86490D01*
X443218Y83537D01*
X442246Y80333D01*
X441918Y77000D01*
X442246Y73667D01*
X443218Y70463D01*
X444797Y67510D01*
X446921Y64921D01*
X449510Y62797D01*
X452463Y61218D01*
X455667Y60246D01*
X459000Y59918D01*
X462333Y60246D01*
X465537Y61218D01*
X468490Y62797D01*
X469820Y63888D01*
X525750D01*
X525750Y63888D01*
X529144Y64335D01*
X532306Y65644D01*
X535022Y67728D01*
X540175Y72881D01*
X540841Y73750D01*
X547500D01*
Y95250D01*
X531019D01*
X530903Y95265D01*
X530787Y95250D01*
X519000D01*
Y90112D01*
X469820D01*
X468490Y91203D01*
X468145Y91388D01*
X468646Y93388D01*
X489000D01*
X489000Y93388D01*
X492394Y93835D01*
X495556Y95145D01*
X498272Y97228D01*
X508681Y107638D01*
X532000D01*
X535394Y108085D01*
X538556Y109395D01*
X539345Y110000D01*
X546250D01*
Y131500D01*
X539345D01*
X538556Y132106D01*
X535394Y133415D01*
X532000Y133862D01*
X503250D01*
X503250Y133862D01*
X499856Y133415D01*
X496694Y132106D01*
X493978Y130022D01*
X493978Y130022D01*
X483569Y119612D01*
X473413D01*
X472467Y121612D01*
X473203Y122510D01*
X474782Y125463D01*
X475754Y128667D01*
X475923Y130379D01*
X484681Y139138D01*
X531500D01*
X534894Y139585D01*
X538056Y140894D01*
X538845Y141500D01*
X545750D01*
Y163000D01*
X538845D01*
X538056Y163605D01*
X534894Y164915D01*
X531500Y165362D01*
X481906D01*
X481141Y167210D01*
X483215Y169285D01*
X484431Y171104D01*
X484858Y173250D01*
Y178121D01*
X489750D01*
Y200121D01*
X468750D01*
Y178121D01*
X473642D01*
Y175573D01*
X469927Y171858D01*
X455858D01*
Y182955D01*
X457695D01*
Y195305D01*
X442805D01*
Y182955D01*
X444642D01*
Y171858D01*
X296358D01*
Y232510D01*
X296583Y233053D01*
X296806Y234750D01*
X296583Y236447D01*
X295928Y238028D01*
X294886Y239386D01*
X293528Y240428D01*
X291947Y241083D01*
X290250Y241306D01*
D02*
G37*
G36*
X55085Y201850D02*
X48910D01*
Y196945D01*
X55085D01*
Y201850D01*
D02*
G37*
G36*
X46370D02*
X40195D01*
Y196945D01*
X46370D01*
Y201850D01*
D02*
G37*
G36*
X176695Y201278D02*
X170520D01*
Y196373D01*
X176695D01*
Y201278D01*
D02*
G37*
G36*
X167980D02*
X161805D01*
Y196373D01*
X167980D01*
Y201278D01*
D02*
G37*
G36*
X401950Y219432D02*
X398719Y219007D01*
X395709Y217759D01*
X393124Y215776D01*
X391141Y213191D01*
X389893Y210180D01*
X389468Y206950D01*
X389893Y203720D01*
X391141Y200709D01*
X393124Y198124D01*
X395709Y196140D01*
X398719Y194893D01*
X401950Y194468D01*
X405181Y194893D01*
X408191Y196140D01*
X410776Y198124D01*
X412760Y200709D01*
X414007Y203720D01*
X414432Y206950D01*
X414007Y210180D01*
X412760Y213191D01*
X410776Y215776D01*
X408191Y217759D01*
X405181Y219007D01*
X401950Y219432D01*
D02*
G37*
G36*
X321950D02*
X318720Y219007D01*
X315709Y217759D01*
X313124Y215776D01*
X311140Y213191D01*
X309893Y210180D01*
X309468Y206950D01*
X309893Y203720D01*
X311140Y200709D01*
X313124Y198124D01*
X315709Y196140D01*
X318720Y194893D01*
X321950Y194468D01*
X325181Y194893D01*
X328191Y196140D01*
X330776Y198124D01*
X332760Y200709D01*
X334007Y203720D01*
X334432Y206950D01*
X334007Y210180D01*
X332760Y213191D01*
X330776Y215776D01*
X328191Y217759D01*
X325181Y219007D01*
X321950Y219432D01*
D02*
G37*
G36*
X208270Y148957D02*
Y133270D01*
X223957D01*
X223754Y135333D01*
X222782Y138537D01*
X221203Y141490D01*
X219079Y144079D01*
X216490Y146203D01*
X213537Y147782D01*
X210333Y148754D01*
X208270Y148957D01*
D02*
G37*
G36*
X223957Y130730D02*
X208270D01*
Y115043D01*
X210333Y115246D01*
X213537Y116218D01*
X216490Y117797D01*
X219079Y119921D01*
X221203Y122510D01*
X222782Y125463D01*
X223754Y128667D01*
X223957Y130730D01*
D02*
G37*
G36*
X333000Y149082D02*
X329667Y148754D01*
X326463Y147782D01*
X323510Y146203D01*
X320921Y144079D01*
X318797Y141490D01*
X317218Y138537D01*
X316246Y135333D01*
X315918Y132000D01*
X316246Y128667D01*
X317218Y125463D01*
X318797Y122510D01*
X320921Y119921D01*
X323510Y117797D01*
X326463Y116218D01*
X329667Y115246D01*
X333000Y114918D01*
X336333Y115246D01*
X339537Y116218D01*
X342490Y117797D01*
X345079Y119921D01*
X347203Y122510D01*
X348782Y125463D01*
X349754Y128667D01*
X350082Y132000D01*
X349754Y135333D01*
X348782Y138537D01*
X347203Y141490D01*
X345079Y144079D01*
X342490Y146203D01*
X339537Y147782D01*
X336333Y148754D01*
X333000Y149082D01*
D02*
G37*
G36*
X417000Y94082D02*
X413667Y93754D01*
X410463Y92782D01*
X407510Y91203D01*
X404921Y89079D01*
X402797Y86490D01*
X401218Y83537D01*
X400246Y80333D01*
X399918Y77000D01*
X400246Y73667D01*
X401218Y70463D01*
X402797Y67510D01*
X404921Y64921D01*
X407510Y62797D01*
X410463Y61218D01*
X413667Y60246D01*
X417000Y59918D01*
X420333Y60246D01*
X423537Y61218D01*
X426490Y62797D01*
X429079Y64921D01*
X431203Y67510D01*
X432782Y70463D01*
X433754Y73667D01*
X434082Y77000D01*
X433754Y80333D01*
X432782Y83537D01*
X431203Y86490D01*
X429079Y89079D01*
X426490Y91203D01*
X423537Y92782D01*
X420333Y93754D01*
X417000Y94082D01*
D02*
G37*
G36*
X333000D02*
X329667Y93754D01*
X326463Y92782D01*
X323510Y91203D01*
X320921Y89079D01*
X318797Y86490D01*
X317218Y83537D01*
X316246Y80333D01*
X315918Y77000D01*
X316246Y73667D01*
X317218Y70463D01*
X318797Y67510D01*
X320921Y64921D01*
X323510Y62797D01*
X326463Y61218D01*
X329667Y60246D01*
X333000Y59918D01*
X336333Y60246D01*
X339537Y61218D01*
X342490Y62797D01*
X345079Y64921D01*
X347203Y67510D01*
X348782Y70463D01*
X349754Y73667D01*
X350082Y77000D01*
X349754Y80333D01*
X348782Y83537D01*
X347203Y86490D01*
X345079Y89079D01*
X342490Y91203D01*
X339537Y92782D01*
X336333Y93754D01*
X333000Y94082D01*
D02*
G37*
G36*
X249000D02*
X245667Y93754D01*
X242463Y92782D01*
X239510Y91203D01*
X236921Y89079D01*
X234797Y86490D01*
X233218Y83537D01*
X232246Y80333D01*
X231918Y77000D01*
X232246Y73667D01*
X233218Y70463D01*
X234797Y67510D01*
X236921Y64921D01*
X239510Y62797D01*
X242463Y61218D01*
X245667Y60246D01*
X249000Y59918D01*
X252333Y60246D01*
X255537Y61218D01*
X258490Y62797D01*
X261079Y64921D01*
X263203Y67510D01*
X264782Y70463D01*
X265754Y73667D01*
X266082Y77000D01*
X265754Y80333D01*
X264782Y83537D01*
X263203Y86490D01*
X261079Y89079D01*
X258490Y91203D01*
X255537Y92782D01*
X252333Y93754D01*
X249000Y94082D01*
D02*
G37*
G36*
X207000D02*
X203667Y93754D01*
X200463Y92782D01*
X197510Y91203D01*
X194921Y89079D01*
X192797Y86490D01*
X191218Y83537D01*
X190246Y80333D01*
X189918Y77000D01*
X190246Y73667D01*
X191218Y70463D01*
X192797Y67510D01*
X194921Y64921D01*
X197510Y62797D01*
X200463Y61218D01*
X203667Y60246D01*
X207000Y59918D01*
X210333Y60246D01*
X213537Y61218D01*
X216490Y62797D01*
X219079Y64921D01*
X221203Y67510D01*
X222782Y70463D01*
X223754Y73667D01*
X224082Y77000D01*
X223754Y80333D01*
X222782Y83537D01*
X221203Y86490D01*
X219079Y89079D01*
X216490Y91203D01*
X213537Y92782D01*
X210333Y93754D01*
X207000Y94082D01*
D02*
G37*
G36*
X165000D02*
X161667Y93754D01*
X158463Y92782D01*
X155510Y91203D01*
X152921Y89079D01*
X150797Y86490D01*
X149218Y83537D01*
X148246Y80333D01*
X147918Y77000D01*
X148246Y73667D01*
X149218Y70463D01*
X150797Y67510D01*
X152921Y64921D01*
X155510Y62797D01*
X158463Y61218D01*
X161667Y60246D01*
X165000Y59918D01*
X168333Y60246D01*
X171537Y61218D01*
X174490Y62797D01*
X177079Y64921D01*
X179203Y67510D01*
X180782Y70463D01*
X181754Y73667D01*
X182082Y77000D01*
X181754Y80333D01*
X180782Y83537D01*
X179203Y86490D01*
X177079Y89079D01*
X174490Y91203D01*
X171537Y92782D01*
X168333Y93754D01*
X165000Y94082D01*
D02*
G37*
G36*
X123000D02*
X119667Y93754D01*
X116463Y92782D01*
X113510Y91203D01*
X110921Y89079D01*
X108797Y86490D01*
X107218Y83537D01*
X106246Y80333D01*
X105918Y77000D01*
X106246Y73667D01*
X107218Y70463D01*
X108797Y67510D01*
X110921Y64921D01*
X113510Y62797D01*
X116463Y61218D01*
X119667Y60246D01*
X123000Y59918D01*
X126333Y60246D01*
X129537Y61218D01*
X132490Y62797D01*
X135079Y64921D01*
X137203Y67510D01*
X138782Y70463D01*
X139754Y73667D01*
X140082Y77000D01*
X139754Y80333D01*
X138782Y83537D01*
X137203Y86490D01*
X135079Y89079D01*
X132490Y91203D01*
X129537Y92782D01*
X126333Y93754D01*
X123000Y94082D01*
D02*
G37*
G36*
X17250Y22069D02*
X15162Y21794D01*
X13216Y20988D01*
X11544Y19706D01*
X10262Y18034D01*
X9456Y16088D01*
X9181Y14000D01*
X9456Y11912D01*
X10262Y9966D01*
X11544Y8294D01*
X13216Y7012D01*
X15162Y6206D01*
X17250Y5931D01*
X19338Y6206D01*
X21284Y7012D01*
X22956Y8294D01*
X24238Y9966D01*
X25044Y11912D01*
X25319Y14000D01*
X25044Y16088D01*
X24238Y18034D01*
X22956Y19706D01*
X21284Y20988D01*
X19338Y21794D01*
X17250Y22069D01*
D02*
G37*
%LPD*%
G54D11*
X479250Y408500D02*
Y433500D01*
Y397500D02*
Y408500D01*
G54D13*
X120314Y676640D02*
X121404Y675550D01*
X205869Y626869D02*
Y637704D01*
X197703Y618703D02*
X205869Y626869D01*
X184140Y618703D02*
X197703D01*
X143131Y650150D02*
X158600D01*
X166360Y642390D01*
Y618703D02*
Y642390D01*
X84000Y608500D02*
X130250D01*
X143131Y621381D01*
Y637450D01*
X100574Y496074D02*
X122250Y517750D01*
X100574Y494500D02*
Y496074D01*
X266397Y571647D02*
X368630D01*
X231750Y537000D02*
X266397Y571647D01*
X124500Y537000D02*
X231750D01*
X122250Y534750D02*
X124500Y537000D01*
X122250Y517750D02*
Y534750D01*
X383870Y591870D02*
X384000Y592000D01*
X383870Y571647D02*
Y591870D01*
X418500Y593500D02*
X418870Y593130D01*
Y571647D02*
Y593130D01*
X221645Y495145D02*
X244000Y517500D01*
X403630Y561380D02*
Y571647D01*
X388750Y546500D02*
X403630Y561380D01*
X258000Y546500D02*
X388750D01*
X244000Y532500D02*
X258000Y546500D01*
X244000Y517500D02*
Y532500D01*
X221645Y494500D02*
Y495145D01*
G54D15*
X0Y0D02*
X590000D01*
X590000Y720500D02*
X590000Y0D01*
X0Y720500D02*
X590000D01*
X0Y0D02*
Y720500D01*
G54D17*
X398000Y691000D02*
D03*
Y676000D02*
D03*
X228258Y675750D02*
D03*
Y690750D02*
D03*
G54D18*
X440250Y692000D02*
D03*
Y673000D02*
D03*
X417250D02*
D03*
Y682500D02*
D03*
Y692000D02*
D03*
G54D19*
X492360Y659410D02*
D03*
X501250Y639090D02*
D03*
X510140Y659410D02*
D03*
X175250Y598382D02*
D03*
X166360Y618703D02*
D03*
X184140D02*
D03*
X151860Y474910D02*
D03*
X160750Y454590D02*
D03*
X169640Y474910D02*
D03*
X28860D02*
D03*
X37750Y454590D02*
D03*
X46640Y474910D02*
D03*
G54D20*
X487000Y682500D02*
D03*
X515000D02*
D03*
X275950Y663750D02*
D03*
X247950D02*
D03*
G54D21*
X506750Y704693D02*
D03*
X491750D02*
D03*
X540510Y618750D02*
D03*
X525510D02*
D03*
G54D22*
X542887Y658750D02*
D03*
Y691750D02*
D03*
G54D23*
X205869Y637704D02*
D03*
X205870Y650404D02*
D03*
Y662850D02*
D03*
Y675550D02*
D03*
X143131D02*
D03*
Y662850D02*
D03*
Y650150D02*
D03*
Y637450D02*
D03*
G54D24*
X501750Y618220D02*
D03*
Y590280D02*
D03*
G54D25*
X99993Y667750D02*
D03*
X120314Y676640D02*
D03*
Y658860D02*
D03*
G54D26*
X368630Y571647D02*
D03*
X383870D02*
D03*
X403130D02*
D03*
X418370D02*
D03*
X191870Y364512D02*
D03*
X176630D02*
D03*
X479250Y397500D02*
D03*
X464010D02*
D03*
Y410000D02*
D03*
X479250D02*
D03*
X525880Y589750D02*
D03*
X541120D02*
D03*
X213380Y408000D02*
D03*
X228620D02*
D03*
X168370Y502000D02*
D03*
X153130D02*
D03*
Y490000D02*
D03*
X168370D02*
D03*
X216370Y348000D02*
D03*
X201130D02*
D03*
X192120D02*
D03*
X176880D02*
D03*
X94630Y408000D02*
D03*
X109870D02*
D03*
X45370Y502000D02*
D03*
X30130D02*
D03*
Y490000D02*
D03*
X45370D02*
D03*
G54D27*
X418500Y593500D02*
D03*
Y626500D02*
D03*
G54D28*
X384000Y592000D02*
D03*
Y628000D02*
D03*
G54D29*
X525250Y189121D02*
D03*
X479250D02*
D03*
Y433500D02*
D03*
X525250D02*
D03*
X245645Y189121D02*
D03*
X199645D02*
D03*
X198645Y433500D02*
D03*
X244645D02*
D03*
X123574D02*
D03*
X77574D02*
D03*
X78574Y189121D02*
D03*
X124574D02*
D03*
G54D30*
X502250Y250121D02*
D03*
Y494500D02*
D03*
X222645Y250121D02*
D03*
X221645Y494500D02*
D03*
X100574D02*
D03*
X101574Y250121D02*
D03*
G54D31*
X47640Y203120D02*
D03*
Y187880D02*
D03*
X555750Y211120D02*
D03*
Y195880D02*
D03*
X450250Y204370D02*
D03*
Y189130D02*
D03*
X169250Y202548D02*
D03*
Y187308D02*
D03*
X413800Y340380D02*
D03*
Y355620D02*
D03*
G54D32*
X538250Y390000D02*
D03*
Y354500D02*
D03*
G54D33*
X466000Y351072D02*
D03*
X501500D02*
D03*
X533250Y84500D02*
D03*
X568750D02*
D03*
X532000Y120750D02*
D03*
X567500D02*
D03*
X531500Y152250D02*
D03*
X567000D02*
D03*
G54D34*
X464010Y380000D02*
D03*
X491950D02*
D03*
G54D60*
X570000Y698000D02*
D03*
X17250Y14000D02*
D03*
G54D61*
X348750Y626500D02*
X418500D01*
X330375Y644875D02*
X348750Y626500D01*
X311500Y663750D02*
X330375Y644875D01*
X316250Y630750D02*
X330375Y644875D01*
X243000Y630750D02*
X316250D01*
X223346Y650404D02*
X243000Y630750D01*
X205870Y650404D02*
X223346D01*
X275950Y663750D02*
X311500D01*
X228258Y690750D02*
X416000D01*
X542887Y691750D02*
Y700863D01*
X528500Y715250D02*
X542887Y700863D01*
X430250Y715250D02*
X528500D01*
X417250Y702250D02*
X430250Y715250D01*
X417250Y692000D02*
Y702250D01*
X416000Y690750D02*
X417250Y692000D01*
X203750Y690750D02*
X228258D01*
X194750Y699750D02*
X203750Y690750D01*
X79750Y699750D02*
X194750D01*
X10750Y630750D02*
X79750Y699750D01*
X10750Y479750D02*
Y630750D01*
X491950Y380000D02*
Y382750D01*
Y376300D02*
Y380000D01*
X453000Y408500D02*
X464010D01*
X497000Y371250D02*
X535000D01*
X491950Y376300D02*
X497000Y371250D01*
X541120Y589750D02*
Y656982D01*
X510140Y659410D02*
X510800Y658750D01*
X542887D01*
X541120Y656982D02*
X542887Y658750D01*
X501750Y618220D02*
X502280Y618750D01*
X525510D01*
X205870Y675550D02*
X232910D01*
X237860Y680500D01*
X290250D01*
X294750Y676000D01*
X398000D01*
X401000Y673000D01*
X417250D01*
X501250Y618720D02*
X501750Y618220D01*
X501250Y618720D02*
Y639090D01*
X491750Y660020D02*
Y704693D01*
Y660020D02*
X492360Y659410D01*
X417250Y682500D02*
X487000D01*
X85250Y667750D02*
X99993D01*
X30130Y612630D02*
X85250Y667750D01*
X30130Y502000D02*
Y612630D01*
X120314Y658860D02*
X124304Y662850D01*
X143131D01*
X247050D02*
X247950Y663750D01*
X205870Y662850D02*
X247050D01*
X83250Y330250D02*
X124000D01*
X47640Y294640D02*
X83250Y330250D01*
X47640Y203120D02*
Y294640D01*
X10750Y479750D02*
X15590Y474910D01*
X15840D02*
X28860D01*
X15590D02*
X15840D01*
X151977Y463523D02*
X152007D01*
X151860Y463640D02*
X151977Y463523D01*
X151860Y463640D02*
Y474910D01*
X538250Y354500D02*
Y368000D01*
X535000Y371250D02*
X538250Y368000D01*
X452750Y408750D02*
X453000Y408500D01*
X462620Y204370D02*
X462880D01*
X450250D02*
X462620D01*
X151860Y474910D02*
X153130Y476180D01*
Y490000D01*
X28860Y474910D02*
X30130Y476180D01*
Y490000D01*
X538250Y354500D02*
X559500D01*
X77574Y411426D02*
Y433500D01*
Y411426D02*
X81000Y408000D01*
X94630D01*
X198645Y412605D02*
Y433500D01*
Y412605D02*
X203250Y408000D01*
X213380D01*
X172750Y433500D02*
X198645D01*
X160750Y445500D02*
X172750Y433500D01*
X160750Y445500D02*
Y454590D01*
X168370Y490000D02*
Y502000D01*
Y476180D02*
Y490000D01*
Y476180D02*
X169640Y474910D01*
X123574Y433500D02*
X124250Y432824D01*
X37750Y441750D02*
Y454590D01*
Y441750D02*
X46000Y433500D01*
X77574D01*
X45370Y490000D02*
Y502000D01*
Y476180D02*
Y490000D01*
Y476180D02*
X46640Y474910D01*
G54D62*
X169250Y203120D02*
X176870D01*
X174500Y597632D02*
X175250Y598382D01*
X174500Y584000D02*
Y597632D01*
X502250Y589780D02*
Y590500D01*
Y494500D02*
Y589780D01*
X502280Y589750D01*
X501750Y590280D02*
X502250Y589780D01*
X502280Y589750D02*
X525880D01*
X501280Y590750D02*
X501750Y590280D01*
X121404Y675550D02*
X143131D01*
X510129Y258000D02*
X541250D01*
X502250Y250121D02*
X510129Y258000D01*
X199645Y185000D02*
X203250D01*
X196250Y189121D02*
Y189250D01*
Y189121D02*
X196250Y178000D01*
X199645Y185000D02*
Y189121D01*
X184500Y166250D02*
X196250Y178000D01*
X280000Y166250D02*
X290750D01*
X290250Y234750D02*
X290750Y234250D01*
Y166250D02*
Y234250D01*
X167500Y166250D02*
X184500D01*
X268750Y155000D02*
X280000Y166250D01*
X268750Y115500D02*
Y155000D01*
X258500Y105250D02*
X268750Y115500D01*
X193000Y105250D02*
X258500D01*
X184500Y113750D02*
X193000Y105250D01*
X184500Y113750D02*
Y166250D01*
X181000Y207250D02*
X211000D01*
X221250Y197000D01*
Y146250D02*
Y197000D01*
X207000Y132000D02*
X221250Y146250D01*
X181000Y207250D02*
Y305250D01*
X176870Y203120D02*
X181000Y207250D01*
X413500Y332500D02*
Y338080D01*
X412500Y339080D02*
X413500Y338080D01*
X412500Y339080D02*
X413800Y340380D01*
X290750Y166250D02*
X452000D01*
X401950Y422450D02*
X432500Y391900D01*
Y352000D02*
Y391900D01*
X420880Y340380D02*
X432500Y352000D01*
X413800Y340380D02*
X420880D01*
X353750Y355500D02*
X353870Y355620D01*
X413800D01*
X406500Y154500D02*
X437250D01*
X396500Y144500D02*
X406500Y154500D01*
X396500Y98500D02*
Y144500D01*
X375000Y77000D02*
X396500Y98500D01*
X153000Y516000D02*
X153130Y515870D01*
Y502000D02*
Y515870D01*
X541250Y258000D02*
X555750Y243500D01*
Y211120D02*
Y243500D01*
X501500Y334250D02*
X501750Y334500D01*
Y355750D01*
X464010Y382750D02*
Y397500D01*
Y357990D02*
Y382750D01*
Y357990D02*
X466250Y355750D01*
X538250Y390000D02*
Y420500D01*
X525250Y433500D02*
X538250Y420500D01*
X79750Y166250D02*
X167500D01*
X166440Y167310D02*
X167500Y166250D01*
X166440Y167310D02*
Y187880D01*
X58500Y166250D02*
X79750D01*
X78574Y167426D02*
X79750Y166250D01*
X78574Y167426D02*
Y189121D01*
X452000Y166250D02*
X472250D01*
X450250Y168000D02*
X452000Y166250D01*
X450250Y168000D02*
Y189130D01*
X479250Y173250D02*
Y189121D01*
X472250Y166250D02*
X479250Y173250D01*
X47640Y177110D02*
X58500Y166250D01*
X47640Y177110D02*
Y187880D01*
G54D63*
X530750Y389750D02*
X531000Y390000D01*
X516250Y389750D02*
X530750D01*
X127500Y191250D02*
X155750Y219500D01*
Y245250D01*
X265250Y189500D02*
X273000D01*
X257500D02*
X265250D01*
X525750Y77000D02*
X530903Y82153D01*
X459000Y77000D02*
X525750D01*
X567500Y120750D02*
Y175250D01*
X222645Y250121D02*
X247024Y274500D01*
X358250D01*
X386000Y302250D01*
X554750D01*
X574000Y283000D01*
Y193000D02*
Y283000D01*
X567500Y186500D02*
X574000Y193000D01*
X567500Y175250D02*
Y186500D01*
X246024Y189500D02*
X257500D01*
X245645Y189121D02*
X246024Y189500D01*
X459000Y132000D02*
X479250Y152250D01*
X417000Y132000D02*
X442500Y106500D01*
X489000D01*
X503250Y120750D01*
X532000D01*
X567500Y85750D02*
Y120750D01*
Y85750D02*
X568750Y84500D01*
X553629Y189121D02*
X567500Y175250D01*
X525250Y189121D02*
X553629D01*
X479250Y152250D02*
X531500D01*
G54D64*
X281250Y321750D02*
X524500D01*
X238487Y364512D02*
X281250Y321750D01*
X191870Y364512D02*
X238487D01*
X192120Y339370D02*
Y348000D01*
X178370Y325620D02*
X192120Y339370D01*
X147120Y325620D02*
X178370D01*
X101574Y250121D02*
X123750Y272297D01*
Y302250D01*
X147120Y325620D01*
X176630Y364512D02*
X176880Y364263D01*
Y348000D02*
Y364263D01*
X101750Y348000D02*
X176880D01*
X101250Y347500D02*
X101750Y348000D01*
X192120D02*
X201130D01*
G54D65*
X216370D02*
X216620Y348250D01*
X228250D01*
X290250Y365000D02*
Y466000D01*
X318750Y494500D01*
X502250D01*
X228620Y417475D02*
X244645Y433500D01*
X228620Y408000D02*
Y417475D01*
X109870Y419796D02*
X123574Y433500D01*
X109870Y408000D02*
Y419796D01*
X105750Y387500D02*
X109870Y391620D01*
Y408000D01*
X228620Y398870D02*
Y408000D01*
X217250Y387500D02*
X228620Y398870D01*
X105750Y387500D02*
X217250D01*
X29500Y311250D02*
X105750Y387500D01*
X29500Y152750D02*
Y311250D01*
Y152750D02*
X50250Y132000D01*
X123000D01*
X228000Y348000D02*
X228250Y348250D01*
G54D66*
X291000Y77000D02*
Y132000D01*
X100574Y494176D02*
Y494500D01*
G54D67*
X84000Y608500D02*
D03*
G54D68*
Y583100D02*
D03*
G54D69*
X321950Y452450D02*
D03*
X401950Y422450D02*
D03*
X321950D02*
D03*
Y236950D02*
D03*
X401950Y206950D02*
D03*
X321950D02*
D03*
G54D70*
X316950Y524450D02*
D03*
X391950Y458450D02*
D03*
X316950Y308950D02*
D03*
X391950Y242950D02*
D03*
G54D71*
X459000Y77000D02*
D03*
X417000D02*
D03*
X375000D02*
D03*
X333000D02*
D03*
X291000D02*
D03*
X249000D02*
D03*
X207000D02*
D03*
X165000D02*
D03*
X123000D02*
D03*
X459000Y132000D02*
D03*
X417000D02*
D03*
X375000D02*
D03*
X333000D02*
D03*
X291000D02*
D03*
X249000D02*
D03*
X207000D02*
D03*
X165000D02*
D03*
X123000D02*
D03*
G54D72*
X348750Y626500D02*
D03*
X559500Y354500D02*
D03*
X458250Y682250D02*
D03*
X30130Y536250D02*
D03*
X174500Y584000D02*
D03*
X133500Y387500D02*
D03*
X181000Y305250D02*
D03*
X124000Y330250D02*
D03*
X15840Y474910D02*
D03*
X152007Y463523D02*
D03*
X452750Y408750D02*
D03*
X462620Y204370D02*
D03*
X413500Y332500D02*
D03*
X524500Y321750D02*
D03*
X101250Y347500D02*
D03*
X290250Y234750D02*
D03*
Y365000D02*
D03*
X353750Y355500D02*
D03*
X437250Y154500D02*
D03*
X516250Y389750D02*
D03*
X265250Y189500D02*
D03*
X273000D02*
D03*
X257500D02*
D03*
X228250Y348250D02*
D03*
X153000Y516000D02*
D03*
X501500Y334250D02*
D03*
G54D73*
X222250Y475750D02*
D03*
X242926Y272926D02*
D03*
X122500Y271297D02*
D03*
X80574Y229750D02*
D03*
X155750Y245250D02*
D03*
X79824Y517176D02*
D03*
X100824D02*
D03*
X79824Y496000D02*
D03*
X100824D02*
D03*
X101574Y229750D02*
D03*
Y250121D02*
D03*
X523750Y232250D02*
D03*
X502750D02*
D03*
X481750D02*
D03*
X523750Y252750D02*
D03*
X502750D02*
D03*
X481750D02*
D03*
Y273926D02*
D03*
X502750D02*
D03*
X523750D02*
D03*
X122500Y229750D02*
D03*
Y250121D02*
D03*
X80574D02*
D03*
Y271297D02*
D03*
X101574D02*
D03*
X221926Y272926D02*
D03*
X200926D02*
D03*
Y251750D02*
D03*
X221926D02*
D03*
X242926D02*
D03*
X200926Y231250D02*
D03*
X221926D02*
D03*
X242926D02*
D03*
X222250Y517426D02*
D03*
X201250D02*
D03*
Y496250D02*
D03*
X222250D02*
D03*
X243250D02*
D03*
X201250Y475750D02*
D03*
X243250D02*
D03*
X121824Y475500D02*
D03*
X79824D02*
D03*
X121824Y496000D02*
D03*
M02*
