Removed Pin From Net: NetName=NetD3_2 Pin=D5-2
Removed Pin From Net: NetName=NetD3_2 Pin=R9-2
Removed Pin From Net: NetName=NetD3_1 Pin=U3-3
Removed Pin From Net: NetName=NetD5_1 Pin=U3-4
Removed Member From Class: ClassName=AIO Flasher Member=D7
Removed Member From Class: ClassName=AIO Flasher Member=D9
Change Component Footprint: Designator=D3 Old Footprint=DIOMELF5024N New Footprint=SOT95P230X110-3N
Change Component Footprint: Designator=D5 Old Footprint=DIOMELF5024N New Footprint=SOT95P230X110-3N
Change Component Comment : Designator=D3 Old Comment=SM5818 New Comment=BAT54C
Change Component Comment : Designator=D5 Old Comment=SM5818 New Comment=BAT54C
Change component parameters: Designator = "D3"; Footprint = "SOT95P230X110-3N"; UniqueID = "\HCPBIVSW"
Change component parameters. Clean all parameters for all variants
Change component parameters (AddParameter): Name = "ComponentLink1Description"; Value = "Datasheet"; VariantName = "[No Variations]"
Change component parameters (AddParameter): Name = "ComponentLink1URL"; Value = "http://10.3.0.23/svn/altiumlib/trunk/ecad_shared/components&datasheets/Diode/Schottky/BAT54C Schottky Barrier Diode_NXP.pdf"; VariantName = "[No Variations]"
Change component parameters (AddParameter): Name = "ComponentLink2Description"; Value = ""; VariantName = "[No Variations]"
Change component parameters (AddParameter): Name = "ComponentLink2URL"; Value = ""; VariantName = "[No Variations]"
Change component parameters (AddParameter): Name = "Configuration"; Value = "Dual"; VariantName = "[No Variations]"
Change component parameters (AddParameter): Name = "Current"; Value = "200mA"; VariantName = "[No Variations]"
Change component parameters (AddParameter): Name = "Design Part ID"; Value = "58"; VariantName = "[No Variations]"
Change component parameters (AddParameter): Name = "JEDEC"; Value = "TO-236AB/SOT-23"; VariantName = "[No Variations]"
Change component parameters (AddParameter): Name = "Lifecycle"; Value = "RELEASED"; VariantName = "[No Variations]"
Change component parameters (AddParameter): Name = "Mounting"; Value = "SMT"; VariantName = "[No Variations]"
Change component parameters (AddParameter): Name = "Originator"; Value = ""; VariantName = "[No Variations]"
Change component parameters (AddParameter): Name = "Part Number"; Value = "VSD0BAT54C"; VariantName = "[No Variations]"
Change component parameters (AddParameter): Name = "Power"; Value = "230mW"; VariantName = "[No Variations]"
Change component parameters (AddParameter): Name = "Project Ref"; Value = ""; VariantName = "[No Variations]"
Change component parameters (AddParameter): Name = "Sys_Description"; Value = "DIODE SCH 0.2A 30V BAT54C SOT323"; VariantName = "[No Variations]"
Change component parameters (AddParameter): Name = "Sys_Ebq"; Value = "3000.000000"; VariantName = "[No Variations]"
Change component parameters (AddParameter): Name = "Sys_Leadtime"; Value = "196"; VariantName = "[No Variations]"
Change component parameters (AddParameter): Name = "Sys_LongDescription"; Value = ""; VariantName = "[No Variations]"
Change component parameters (AddParameter): Name = "Sys_Manufacturer"; Value = "INFINEON"; VariantName = "[No Variations]"
Change component parameters (AddParameter): Name = "Sys_ManufacturerPartNo"; Value = "BAT64-05W/Q62702-A1161"; VariantName = "[No Variations]"
Change component parameters (AddParameter): Name = "Sys_MaterialCost"; Value = "0.16790"; VariantName = "[No Variations]"
Change component parameters (AddParameter): Name = "Sys_PartCategory"; Value = ""; VariantName = "[No Variations]"
Change component parameters (AddParameter): Name = "Sys_QtyAllocated"; Value = "2243"; VariantName = "[No Variations]"
Change component parameters (AddParameter): Name = "Sys_QtyFree"; Value = "-18"; VariantName = "[No Variations]"
Change component parameters (AddParameter): Name = "Sys_QtyOnHand"; Value = "2225"; VariantName = "[No Variations]"
Change component parameters (AddParameter): Name = "Sys_StockOnHold"; Value = ""; VariantName = "[No Variations]"
Change component parameters (AddParameter): Name = "Sys_Supplier"; Value = "EBV001"; VariantName = "[No Variations]"
Change component parameters (AddParameter): Name = "Sys_UnitOfMeasure"; Value = "ea"; VariantName = "[No Variations]"
Change component parameters (AddParameter): Name = "Sys_UpdateDateTime"; Value = "2018-06-25 11:01:56 PM"; VariantName = "[No Variations]"
Change component parameters (AddParameter): Name = "Sys_Warehouse"; Value = "S2"; VariantName = "[No Variations]"
Change component parameters (AddParameter): Name = "Sys_YtdQtyIssued"; Value = "3954"; VariantName = "[No Variations]"
Change component parameters (AddParameter): Name = "Temperature"; Value = "-65C to +125C"; VariantName = "[No Variations]"
Change component parameters (AddParameter): Name = "Tolerance"; Value = ""; VariantName = "[No Variations]"
Change component parameters (AddParameter): Name = "Type"; Value = "Schottky"; VariantName = "[No Variations]"
Change component parameters (AddParameter): Name = "Value"; Value = "BAT54C"; VariantName = "[No Variations]"
Change component parameters (AddParameter): Name = "Vfw"; Value = "0.8V Max"; VariantName = "[No Variations]"
Change component parameters (AddParameter): Name = "Vr"; Value = "30V"; VariantName = "[No Variations]"
Change component parameters (AddParameter): Name = "Vz"; Value = ""; VariantName = "[No Variations]"
Change component parameters: Designator = "D5"; Footprint = "SOT95P230X110-3N"; UniqueID = "\NVCSLYYB"
Change component parameters. Clean all parameters for all variants
Change component parameters (AddParameter): Name = "ComponentLink1Description"; Value = "Datasheet"; VariantName = "[No Variations]"
Change component parameters (AddParameter): Name = "ComponentLink1URL"; Value = "http://10.3.0.23/svn/altiumlib/trunk/ecad_shared/components&datasheets/Diode/Schottky/BAT54C Schottky Barrier Diode_NXP.pdf"; VariantName = "[No Variations]"
Change component parameters (AddParameter): Name = "ComponentLink2Description"; Value = ""; VariantName = "[No Variations]"
Change component parameters (AddParameter): Name = "ComponentLink2URL"; Value = ""; VariantName = "[No Variations]"
Change component parameters (AddParameter): Name = "Configuration"; Value = "Dual"; VariantName = "[No Variations]"
Change component parameters (AddParameter): Name = "Current"; Value = "200mA"; VariantName = "[No Variations]"
Change component parameters (AddParameter): Name = "Design Part ID"; Value = "58"; VariantName = "[No Variations]"
Change component parameters (AddParameter): Name = "JEDEC"; Value = "TO-236AB/SOT-23"; VariantName = "[No Variations]"
Change component parameters (AddParameter): Name = "Lifecycle"; Value = "RELEASED"; VariantName = "[No Variations]"
Change component parameters (AddParameter): Name = "Mounting"; Value = "SMT"; VariantName = "[No Variations]"
Change component parameters (AddParameter): Name = "Originator"; Value = ""; VariantName = "[No Variations]"
Change component parameters (AddParameter): Name = "Part Number"; Value = "VSD0BAT54C"; VariantName = "[No Variations]"
Change component parameters (AddParameter): Name = "Power"; Value = "230mW"; VariantName = "[No Variations]"
Change component parameters (AddParameter): Name = "Project Ref"; Value = ""; VariantName = "[No Variations]"
Change component parameters (AddParameter): Name = "Sys_Description"; Value = "DIODE SCH 0.2A 30V BAT54C SOT323"; VariantName = "[No Variations]"
Change component parameters (AddParameter): Name = "Sys_Ebq"; Value = "3000.000000"; VariantName = "[No Variations]"
Change component parameters (AddParameter): Name = "Sys_Leadtime"; Value = "196"; VariantName = "[No Variations]"
Change component parameters (AddParameter): Name = "Sys_LongDescription"; Value = ""; VariantName = "[No Variations]"
Change component parameters (AddParameter): Name = "Sys_Manufacturer"; Value = "INFINEON"; VariantName = "[No Variations]"
Change component parameters (AddParameter): Name = "Sys_ManufacturerPartNo"; Value = "BAT64-05W/Q62702-A1161"; VariantName = "[No Variations]"
Change component parameters (AddParameter): Name = "Sys_MaterialCost"; Value = "0.16790"; VariantName = "[No Variations]"
Change component parameters (AddParameter): Name = "Sys_PartCategory"; Value = ""; VariantName = "[No Variations]"
Change component parameters (AddParameter): Name = "Sys_QtyAllocated"; Value = "2243"; VariantName = "[No Variations]"
Change component parameters (AddParameter): Name = "Sys_QtyFree"; Value = "-18"; VariantName = "[No Variations]"
Change component parameters (AddParameter): Name = "Sys_QtyOnHand"; Value = "2225"; VariantName = "[No Variations]"
Change component parameters (AddParameter): Name = "Sys_StockOnHold"; Value = ""; VariantName = "[No Variations]"
Change component parameters (AddParameter): Name = "Sys_Supplier"; Value = "EBV001"; VariantName = "[No Variations]"
Change component parameters (AddParameter): Name = "Sys_UnitOfMeasure"; Value = "ea"; VariantName = "[No Variations]"
Change component parameters (AddParameter): Name = "Sys_UpdateDateTime"; Value = "2018-06-25 11:01:56 PM"; VariantName = "[No Variations]"
Change component parameters (AddParameter): Name = "Sys_Warehouse"; Value = "S2"; VariantName = "[No Variations]"
Change component parameters (AddParameter): Name = "Sys_YtdQtyIssued"; Value = "3954"; VariantName = "[No Variations]"
Change component parameters (AddParameter): Name = "Temperature"; Value = "-65C to +125C"; VariantName = "[No Variations]"
Change component parameters (AddParameter): Name = "Tolerance"; Value = ""; VariantName = "[No Variations]"
Change component parameters (AddParameter): Name = "Type"; Value = "Schottky"; VariantName = "[No Variations]"
Change component parameters (AddParameter): Name = "Value"; Value = "BAT54C"; VariantName = "[No Variations]"
Change component parameters (AddParameter): Name = "Vfw"; Value = "0.8V Max"; VariantName = "[No Variations]"
Change component parameters (AddParameter): Name = "Vr"; Value = "30V"; VariantName = "[No Variations]"
Change component parameters (AddParameter): Name = "Vz"; Value = ""; VariantName = "[No Variations]"
Added Pin To Net: NetName=NetD3_2 Pin=U3-3
Added Pin To Net: NetName=NetD3_1 Pin=U3-4
Added Pin To Net: NetName=NetD5_1 Pin=U3-5
Added Pin To Net: NetName=NetD3_3 Pin=D3-3
Added Pin To Net: NetName=NetD3_3 Pin=R9-2
Added Net: Name=NetD3_3
Added Pin To Net: NetName=NetD5_2 Pin=D5-2
Added Pin To Net: NetName=NetD5_2 Pin=U3-10
Added Net: Name=NetD5_2
Added Pin To Net: NetName=NetD5_3 Pin=D5-3
Added Pin To Net: NetName=NetD5_3 Pin=R15-2
Added Net: Name=NetD5_3
Added Member To Class: ClassName=AIO Flasher Member=Component C1 1UF
Added Member To Class: ClassName=AIO Flasher Member=Component C2 10UF
Added Member To Class: ClassName=AIO Flasher Member=Component C3 10UF
Added Member To Class: ClassName=AIO Flasher Member=Component D1 S1G
Added Member To Class: ClassName=AIO Flasher Member=Component D2 S1G
Added Member To Class: ClassName=AIO Flasher Member=Component Q1 ATP106-TL-H
Added Member To Class: ClassName=AIO Flasher Member=Component Q2 BC817
Added Member To Class: ClassName=AIO Flasher Member=Component Q3 ATP106-TL-H
Added Member To Class: ClassName=AIO Flasher Member=Component Q4 ATP106-TL-H
Added Member To Class: ClassName=AIO Flasher Member=Component Q5 ATP106-TL-H
Added Member To Class: ClassName=AIO Flasher Member=Component Q6 ATP106-TL-H
Added Member To Class: ClassName=AIO Flasher Member=Component Q7 BC817
Added Member To Class: ClassName=AIO Flasher Member=Component R1 10K
Added Member To Class: ClassName=AIO Flasher Member=Component R2 1.0K
Added Member To Class: ClassName=AIO Flasher Member=Component R3 10K
Added Member To Class: ClassName=AIO Flasher Member=Component R4 10K
Added Member To Class: ClassName=AIO Flasher Member=Component R5 10K
Added Member To Class: ClassName=AIO Flasher Member=Component R6 0R
Added Member To Class: ClassName=AIO Flasher Member=Component R7 10K
Added Member To Class: ClassName=AIO Flasher Member=Component R8 10K
Added Member To Class: ClassName=AIO Flasher Member=Component R9 1.0K
Added Member To Class: ClassName=AIO Flasher Member=Component R10 10K
Added Member To Class: ClassName=AIO Flasher Member=Component R11 0R
Added Member To Class: ClassName=AIO Flasher Member=Component R12 10K
Added Member To Class: ClassName=AIO Flasher Member=Component R13 0R
Added Member To Class: ClassName=AIO Flasher Member=Component R14 10K
Added Member To Class: ClassName=AIO Flasher Member=Component R15 1.0K
Added Member To Class: ClassName=AIO Flasher Member=Component R16 10K
Added Member To Class: ClassName=AIO Flasher Member=Component R17 0R
