Added Component: Designator=Q8(ATP113TLH)
Add component. Clean all parameters for all variants
Add component (AddParameter): Name = "Datasheet Link"; Value = "http://www.onsemi.com/pub/Collateral/ENA1597-D.PDF"; VariantName = "[No Variations]"
Add component (AddParameter): Name = "Manufacturer_Name"; Value = "ON Semiconductor"; VariantName = "[No Variations]"
Add component (AddParameter): Name = "Manufacturer_Part_Number"; Value = "ATP106-TL-H"; VariantName = "[No Variations]"
Add component (AddParameter): Name = "Mouser Part Number"; Value = "863-ATP106-TL-H"; VariantName = "[No Variations]"
Add component (AddParameter): Name = "Mouser Price/Stock"; Value = "https://www.mouser.com/Search/Refine.aspx?Keyword=863-ATP106-TL-H"; VariantName = "[No Variations]"
Add component (AddParameter): Name = "RS Part Number"; Value = "8009484P"; VariantName = "[No Variations]"
Add component (AddParameter): Name = "RS Price/Stock"; Value = "http://uk.rs-online.com/web/p/products/8009484P"; VariantName = "[No Variations]"
Added Pin To Net: NetName=ENABLE Pin=Q8-1
Added Pin To Net: NetName=TRUNK_IN Pin=Q8-3
Added Pin To Net: NetName=TRUNK_OUT Pin=Q8-4
Added Member To Class: ClassName=AIO Flasher Member=Component Q8 ATP106-TL-H
