Added Pin To Net: NetName=REVERSE_OUT Pin=Q1-4
Added Pin To Net: NetName=ENABLE Pin=Q3-4
Added Pin To Net: NetName=NetD4_1 Pin=Q4-4
Added Pin To Net: NetName=NetD4_1 Pin=Q5-4
Added Pin To Net: NetName=2ND_PULSE Pin=Q6-4
Added Member To Class: ClassName=AIO Flasher Member=Component C1 1UF
Added Member To Class: ClassName=AIO Flasher Member=Component C2 10UF
Added Member To Class: ClassName=AIO Flasher Member=Component C3 10UF
Added Member To Class: ClassName=AIO Flasher Member=Component D1 S1G
Added Member To Class: ClassName=AIO Flasher Member=Component D2 S1G
Added Member To Class: ClassName=AIO Flasher Member=Component Q1 ATP106-TL-H
Added Member To Class: ClassName=AIO Flasher Member=Component Q2 BC817
Added Member To Class: ClassName=AIO Flasher Member=Component Q3 ATP106-TL-H
Added Member To Class: ClassName=AIO Flasher Member=Component Q4 ATP106-TL-H
Added Member To Class: ClassName=AIO Flasher Member=Component Q5 ATP106-TL-H
Added Member To Class: ClassName=AIO Flasher Member=Component Q6 ATP106-TL-H
Added Member To Class: ClassName=AIO Flasher Member=Component Q7 BC817
Added Member To Class: ClassName=AIO Flasher Member=Component R1 10K
Added Member To Class: ClassName=AIO Flasher Member=Component R2 1.0K
Added Member To Class: ClassName=AIO Flasher Member=Component R3 10K
Added Member To Class: ClassName=AIO Flasher Member=Component R4 10K
Added Member To Class: ClassName=AIO Flasher Member=Component R5 10K
Added Member To Class: ClassName=AIO Flasher Member=Component R6 0R
Added Member To Class: ClassName=AIO Flasher Member=Component R7 10K
Added Member To Class: ClassName=AIO Flasher Member=Component R8 10K
Added Member To Class: ClassName=AIO Flasher Member=Component R9 1.0K
Added Member To Class: ClassName=AIO Flasher Member=Component R10 10K
Added Member To Class: ClassName=AIO Flasher Member=Component R11 0R
Added Member To Class: ClassName=AIO Flasher Member=Component R12 10K
Added Member To Class: ClassName=AIO Flasher Member=Component R13 0R
Added Member To Class: ClassName=AIO Flasher Member=Component R14 10K
Added Member To Class: ClassName=AIO Flasher Member=Component R15 1.0K
Added Member To Class: ClassName=AIO Flasher Member=Component R16 10K
Added Member To Class: ClassName=AIO Flasher Member=Component R17 0R
