M48
;Layer_Color=9474304
;FILE_FORMAT=4:4
METRIC,LZ
;TYPE=PLATED
T2F00S00C0.6000
%
G90
G05
T02
X-00020862Y00135874G85X-00005862
X00035238Y00135874G85X00045238
X00035238Y00222274G85X00045238
X-00020862Y00222274G85X-00005862
M30
