Removed Pin From Net: NetName=GEAR_SHIFT_1 Pin=P1-5
Removed Pin From Net: NetName=GEAR_SHIFT_2 Pin=P1-6
Removed Pin From Net: NetName=GEAR_SHIFT_1 Pin=P1-7
Removed Pin From Net: NetName=GEAR_SHIFT_2 Pin=P1-8
Added Pin To Net: NetName=GEAR_SHIFT_2 Pin=P1-5
Added Pin To Net: NetName=GEAR_SHIFT_1 Pin=P1-6
Added Pin To Net: NetName=GEAR_SHIFT_2 Pin=P1-7
Added Pin To Net: NetName=GEAR_SHIFT_1 Pin=P1-8
