Removed Pin From Net: NetName=VCC Pin=K2-1
Removed Pin From Net: NetName=EXT_IMMOB Pin=K2-2
Removed Pin From Net: NetName=GEAR_SHIFT_2 Pin=K2-3
Removed Pin From Net: NetName=GEAR_SHIFT_1 Pin=K2-4
Removed Pin From Net: NetName=VCC Pin=K3-1
Removed Pin From Net: NetName=EXT_IMMOB Pin=K3-2
Removed Pin From Net: NetName=VCC Pin=K3-4
Removed Pin From Net: NetName=GUN_RACK Pin=K3-5
Removed Pin From Net: NetName=VCC Pin=K4-1
Removed Pin From Net: NetName=EXT_IMMOB Pin=K4-2
Removed Pin From Net: NetName=VCC Pin=K4-4
Removed Pin From Net: NetName=IGNITION Pin=K4-5
Removed Pin From Net: NetName=VCC Pin=K5-1
Removed Pin From Net: NetName=EXT_IMMOB Pin=K5-2
Removed Pin From Net: NetName=NetD2_2 Pin=K5-3
Removed Pin From Net: NetName=12V_ARM Pin=K5-4
Removed Member From Class: ClassName=Idle Protector V1 Member=K2
Removed Member From Class: ClassName=Idle Protector V1 Member=K3
Removed Member From Class: ClassName=Idle Protector V1 Member=K4
Removed Member From Class: ClassName=Idle Protector V1 Member=K5
Change Component Comment : Designator=J1 Old Comment=1586041-6 New Comment=DNP
Change Component Comment : Designator=F1 Old Comment=Fiducial 1mm New Comment=DNP
Change Component Comment : Designator=F2 Old Comment=Fiducial 1mm New Comment=DNP
Change Component Comment : Designator=P1 Old Comment=Header 4X2 New Comment=DNP
