Added Component: Designator=RL2(V23086C1001A403)
Add component. Clean all parameters for all variants
Add component (AddParameter): Name = "Coil Current"; Value = ""; VariantName = "[No Variations]"
Add component (AddParameter): Name = "Coil Voltage"; Value = ""; VariantName = "[No Variations]"
Add component (AddParameter): Name = "ComponentLink1Description"; Value = ""; VariantName = "[No Variations]"
Add component (AddParameter): Name = "ComponentLink1URL"; Value = ""; VariantName = "[No Variations]"
Add component (AddParameter): Name = "ComponentLink2Description"; Value = ""; VariantName = "[No Variations]"
Add component (AddParameter): Name = "ComponentLink2URL"; Value = ""; VariantName = "[No Variations]"
Add component (AddParameter): Name = "Configuration"; Value = ""; VariantName = "[No Variations]"
Add component (AddParameter): Name = "Contact Rating"; Value = ""; VariantName = "[No Variations]"
Add component (AddParameter): Name = "Design Part ID"; Value = "2"; VariantName = "[No Variations]"
Add component (AddParameter): Name = "Isolation"; Value = ""; VariantName = "[No Variations]"
Add component (AddParameter): Name = "JEDEC"; Value = ""; VariantName = "[No Variations]"
Add component (AddParameter): Name = "Lifecycle"; Value = ""; VariantName = "[No Variations]"
Add component (AddParameter): Name = "Mounting"; Value = ""; VariantName = "[No Variations]"
Add component (AddParameter): Name = "Originator"; Value = ""; VariantName = "[No Variations]"
Add component (AddParameter): Name = "Part Number"; Value = "EMRLY/25A/01"; VariantName = "[No Variations]"
Add component (AddParameter): Name = "Project Ref"; Value = ""; VariantName = "[No Variations]"
Add component (AddParameter): Name = "Sys_Description"; Value = "MINI RELAY 25A 0-1393280-6"; VariantName = "[No Variations]"
Add component (AddParameter): Name = "Sys_Ebq"; Value = "2000.000000"; VariantName = "[No Variations]"
Add component (AddParameter): Name = "Sys_Leadtime"; Value = "3"; VariantName = "[No Variations]"
Add component (AddParameter): Name = "Sys_LongDescription"; Value = ""; VariantName = "[No Variations]"
Add component (AddParameter): Name = "Sys_Manufacturer"; Value = "TE CONNECTIVITY"; VariantName = "[No Variations]"
Add component (AddParameter): Name = "Sys_ManufacturerPartNo"; Value = "0-1393280-6"; VariantName = "[No Variations]"
Add component (AddParameter): Name = "Sys_MaterialCost"; Value = "6.29120"; VariantName = "[No Variations]"
Add component (AddParameter): Name = "Sys_PartCategory"; Value = ""; VariantName = "[No Variations]"
Add component (AddParameter): Name = "Sys_QtyAllocated"; Value = "94953"; VariantName = "[No Variations]"
Add component (AddParameter): Name = "Sys_QtyFree"; Value = "100757"; VariantName = "[No Variations]"
Add component (AddParameter): Name = "Sys_QtyOnHand"; Value = "195710"; VariantName = "[No Variations]"
Add component (AddParameter): Name = "Sys_StockOnHold"; Value = ""; VariantName = "[No Variations]"
Add component (AddParameter): Name = "Sys_Supplier"; Value = "TEC002"; VariantName = "[No Variations]"
Add component (AddParameter): Name = "Sys_UnitOfMeasure"; Value = "ea"; VariantName = "[No Variations]"
Add component (AddParameter): Name = "Sys_UpdateDateTime"; Value = "2016-01-19 9:04:37 AM"; VariantName = "[No Variations]"
Add component (AddParameter): Name = "Sys_Warehouse"; Value = "S1"; VariantName = "[No Variations]"
Add component (AddParameter): Name = "Sys_YtdQtyIssued"; Value = "1087148"; VariantName = "[No Variations]"
Add component (AddParameter): Name = "Type"; Value = "Relay"; VariantName = "[No Variations]"
Add component (AddParameter): Name = "Value"; Value = "0-1393280-6"; VariantName = "[No Variations]"
Added Component: Designator=RL3(V23086C1001A403)
Add component. Clean all parameters for all variants
Add component (AddParameter): Name = "Coil Current"; Value = ""; VariantName = "[No Variations]"
Add component (AddParameter): Name = "Coil Voltage"; Value = ""; VariantName = "[No Variations]"
Add component (AddParameter): Name = "ComponentLink1Description"; Value = ""; VariantName = "[No Variations]"
Add component (AddParameter): Name = "ComponentLink1URL"; Value = ""; VariantName = "[No Variations]"
Add component (AddParameter): Name = "ComponentLink2Description"; Value = ""; VariantName = "[No Variations]"
Add component (AddParameter): Name = "ComponentLink2URL"; Value = ""; VariantName = "[No Variations]"
Add component (AddParameter): Name = "Configuration"; Value = ""; VariantName = "[No Variations]"
Add component (AddParameter): Name = "Contact Rating"; Value = ""; VariantName = "[No Variations]"
Add component (AddParameter): Name = "Design Part ID"; Value = "2"; VariantName = "[No Variations]"
Add component (AddParameter): Name = "Isolation"; Value = ""; VariantName = "[No Variations]"
Add component (AddParameter): Name = "JEDEC"; Value = ""; VariantName = "[No Variations]"
Add component (AddParameter): Name = "Lifecycle"; Value = ""; VariantName = "[No Variations]"
Add component (AddParameter): Name = "Mounting"; Value = ""; VariantName = "[No Variations]"
Add component (AddParameter): Name = "Originator"; Value = ""; VariantName = "[No Variations]"
Add component (AddParameter): Name = "Part Number"; Value = "EMRLY/25A/01"; VariantName = "[No Variations]"
Add component (AddParameter): Name = "Project Ref"; Value = ""; VariantName = "[No Variations]"
Add component (AddParameter): Name = "Sys_Description"; Value = "MINI RELAY 25A 0-1393280-6"; VariantName = "[No Variations]"
Add component (AddParameter): Name = "Sys_Ebq"; Value = "2000.000000"; VariantName = "[No Variations]"
Add component (AddParameter): Name = "Sys_Leadtime"; Value = "3"; VariantName = "[No Variations]"
Add component (AddParameter): Name = "Sys_LongDescription"; Value = ""; VariantName = "[No Variations]"
Add component (AddParameter): Name = "Sys_Manufacturer"; Value = "TE CONNECTIVITY"; VariantName = "[No Variations]"
Add component (AddParameter): Name = "Sys_ManufacturerPartNo"; Value = "0-1393280-6"; VariantName = "[No Variations]"
Add component (AddParameter): Name = "Sys_MaterialCost"; Value = "6.29120"; VariantName = "[No Variations]"
Add component (AddParameter): Name = "Sys_PartCategory"; Value = ""; VariantName = "[No Variations]"
Add component (AddParameter): Name = "Sys_QtyAllocated"; Value = "94953"; VariantName = "[No Variations]"
Add component (AddParameter): Name = "Sys_QtyFree"; Value = "100757"; VariantName = "[No Variations]"
Add component (AddParameter): Name = "Sys_QtyOnHand"; Value = "195710"; VariantName = "[No Variations]"
Add component (AddParameter): Name = "Sys_StockOnHold"; Value = ""; VariantName = "[No Variations]"
Add component (AddParameter): Name = "Sys_Supplier"; Value = "TEC002"; VariantName = "[No Variations]"
Add component (AddParameter): Name = "Sys_UnitOfMeasure"; Value = "ea"; VariantName = "[No Variations]"
Add component (AddParameter): Name = "Sys_UpdateDateTime"; Value = "2016-01-19 9:04:37 AM"; VariantName = "[No Variations]"
Add component (AddParameter): Name = "Sys_Warehouse"; Value = "S1"; VariantName = "[No Variations]"
Add component (AddParameter): Name = "Sys_YtdQtyIssued"; Value = "1087148"; VariantName = "[No Variations]"
Add component (AddParameter): Name = "Type"; Value = "Relay"; VariantName = "[No Variations]"
Add component (AddParameter): Name = "Value"; Value = "0-1393280-6"; VariantName = "[No Variations]"
Added Component: Designator=RL4(V23086C1001A403)
Add component. Clean all parameters for all variants
Add component (AddParameter): Name = "Coil Current"; Value = ""; VariantName = "[No Variations]"
Add component (AddParameter): Name = "Coil Voltage"; Value = ""; VariantName = "[No Variations]"
Add component (AddParameter): Name = "ComponentLink1Description"; Value = ""; VariantName = "[No Variations]"
Add component (AddParameter): Name = "ComponentLink1URL"; Value = ""; VariantName = "[No Variations]"
Add component (AddParameter): Name = "ComponentLink2Description"; Value = ""; VariantName = "[No Variations]"
Add component (AddParameter): Name = "ComponentLink2URL"; Value = ""; VariantName = "[No Variations]"
Add component (AddParameter): Name = "Configuration"; Value = ""; VariantName = "[No Variations]"
Add component (AddParameter): Name = "Contact Rating"; Value = ""; VariantName = "[No Variations]"
Add component (AddParameter): Name = "Design Part ID"; Value = "2"; VariantName = "[No Variations]"
Add component (AddParameter): Name = "Isolation"; Value = ""; VariantName = "[No Variations]"
Add component (AddParameter): Name = "JEDEC"; Value = ""; VariantName = "[No Variations]"
Add component (AddParameter): Name = "Lifecycle"; Value = ""; VariantName = "[No Variations]"
Add component (AddParameter): Name = "Mounting"; Value = ""; VariantName = "[No Variations]"
Add component (AddParameter): Name = "Originator"; Value = ""; VariantName = "[No Variations]"
Add component (AddParameter): Name = "Part Number"; Value = "EMRLY/25A/01"; VariantName = "[No Variations]"
Add component (AddParameter): Name = "Project Ref"; Value = ""; VariantName = "[No Variations]"
Add component (AddParameter): Name = "Sys_Description"; Value = "MINI RELAY 25A 0-1393280-6"; VariantName = "[No Variations]"
Add component (AddParameter): Name = "Sys_Ebq"; Value = "2000.000000"; VariantName = "[No Variations]"
Add component (AddParameter): Name = "Sys_Leadtime"; Value = "3"; VariantName = "[No Variations]"
Add component (AddParameter): Name = "Sys_LongDescription"; Value = ""; VariantName = "[No Variations]"
Add component (AddParameter): Name = "Sys_Manufacturer"; Value = "TE CONNECTIVITY"; VariantName = "[No Variations]"
Add component (AddParameter): Name = "Sys_ManufacturerPartNo"; Value = "0-1393280-6"; VariantName = "[No Variations]"
Add component (AddParameter): Name = "Sys_MaterialCost"; Value = "6.29120"; VariantName = "[No Variations]"
Add component (AddParameter): Name = "Sys_PartCategory"; Value = ""; VariantName = "[No Variations]"
Add component (AddParameter): Name = "Sys_QtyAllocated"; Value = "94953"; VariantName = "[No Variations]"
Add component (AddParameter): Name = "Sys_QtyFree"; Value = "100757"; VariantName = "[No Variations]"
Add component (AddParameter): Name = "Sys_QtyOnHand"; Value = "195710"; VariantName = "[No Variations]"
Add component (AddParameter): Name = "Sys_StockOnHold"; Value = ""; VariantName = "[No Variations]"
Add component (AddParameter): Name = "Sys_Supplier"; Value = "TEC002"; VariantName = "[No Variations]"
Add component (AddParameter): Name = "Sys_UnitOfMeasure"; Value = "ea"; VariantName = "[No Variations]"
Add component (AddParameter): Name = "Sys_UpdateDateTime"; Value = "2016-01-19 9:04:37 AM"; VariantName = "[No Variations]"
Add component (AddParameter): Name = "Sys_Warehouse"; Value = "S1"; VariantName = "[No Variations]"
Add component (AddParameter): Name = "Sys_YtdQtyIssued"; Value = "1087148"; VariantName = "[No Variations]"
Add component (AddParameter): Name = "Type"; Value = "Relay"; VariantName = "[No Variations]"
Add component (AddParameter): Name = "Value"; Value = "0-1393280-6"; VariantName = "[No Variations]"
Added Component: Designator=RL5(V23086C1001A403)
Add component. Clean all parameters for all variants
Add component (AddParameter): Name = "Coil Current"; Value = ""; VariantName = "[No Variations]"
Add component (AddParameter): Name = "Coil Voltage"; Value = ""; VariantName = "[No Variations]"
Add component (AddParameter): Name = "ComponentLink1Description"; Value = ""; VariantName = "[No Variations]"
Add component (AddParameter): Name = "ComponentLink1URL"; Value = ""; VariantName = "[No Variations]"
Add component (AddParameter): Name = "ComponentLink2Description"; Value = ""; VariantName = "[No Variations]"
Add component (AddParameter): Name = "ComponentLink2URL"; Value = ""; VariantName = "[No Variations]"
Add component (AddParameter): Name = "Configuration"; Value = ""; VariantName = "[No Variations]"
Add component (AddParameter): Name = "Contact Rating"; Value = ""; VariantName = "[No Variations]"
Add component (AddParameter): Name = "Design Part ID"; Value = "2"; VariantName = "[No Variations]"
Add component (AddParameter): Name = "Isolation"; Value = ""; VariantName = "[No Variations]"
Add component (AddParameter): Name = "JEDEC"; Value = ""; VariantName = "[No Variations]"
Add component (AddParameter): Name = "Lifecycle"; Value = ""; VariantName = "[No Variations]"
Add component (AddParameter): Name = "Mounting"; Value = ""; VariantName = "[No Variations]"
Add component (AddParameter): Name = "Originator"; Value = ""; VariantName = "[No Variations]"
Add component (AddParameter): Name = "Part Number"; Value = "EMRLY/25A/01"; VariantName = "[No Variations]"
Add component (AddParameter): Name = "Project Ref"; Value = ""; VariantName = "[No Variations]"
Add component (AddParameter): Name = "Sys_Description"; Value = "MINI RELAY 25A 0-1393280-6"; VariantName = "[No Variations]"
Add component (AddParameter): Name = "Sys_Ebq"; Value = "2000.000000"; VariantName = "[No Variations]"
Add component (AddParameter): Name = "Sys_Leadtime"; Value = "3"; VariantName = "[No Variations]"
Add component (AddParameter): Name = "Sys_LongDescription"; Value = ""; VariantName = "[No Variations]"
Add component (AddParameter): Name = "Sys_Manufacturer"; Value = "TE CONNECTIVITY"; VariantName = "[No Variations]"
Add component (AddParameter): Name = "Sys_ManufacturerPartNo"; Value = "0-1393280-6"; VariantName = "[No Variations]"
Add component (AddParameter): Name = "Sys_MaterialCost"; Value = "6.29120"; VariantName = "[No Variations]"
Add component (AddParameter): Name = "Sys_PartCategory"; Value = ""; VariantName = "[No Variations]"
Add component (AddParameter): Name = "Sys_QtyAllocated"; Value = "94953"; VariantName = "[No Variations]"
Add component (AddParameter): Name = "Sys_QtyFree"; Value = "100757"; VariantName = "[No Variations]"
Add component (AddParameter): Name = "Sys_QtyOnHand"; Value = "195710"; VariantName = "[No Variations]"
Add component (AddParameter): Name = "Sys_StockOnHold"; Value = ""; VariantName = "[No Variations]"
Add component (AddParameter): Name = "Sys_Supplier"; Value = "TEC002"; VariantName = "[No Variations]"
Add component (AddParameter): Name = "Sys_UnitOfMeasure"; Value = "ea"; VariantName = "[No Variations]"
Add component (AddParameter): Name = "Sys_UpdateDateTime"; Value = "2016-01-19 9:04:37 AM"; VariantName = "[No Variations]"
Add component (AddParameter): Name = "Sys_Warehouse"; Value = "S1"; VariantName = "[No Variations]"
Add component (AddParameter): Name = "Sys_YtdQtyIssued"; Value = "1087148"; VariantName = "[No Variations]"
Add component (AddParameter): Name = "Type"; Value = "Relay"; VariantName = "[No Variations]"
Add component (AddParameter): Name = "Value"; Value = "0-1393280-6"; VariantName = "[No Variations]"
Added Pin To Net: NetName=VCC Pin=RL2-1
Added Pin To Net: NetName=EXT_IMMOB Pin=RL2-2
Added Pin To Net: NetName=GEAR_SHIFT_1 Pin=RL2-3
Added Pin To Net: NetName=GEAR_SHIFT_2 Pin=RL2-4
Added Pin To Net: NetName=VCC Pin=RL3-1
Added Pin To Net: NetName=EXT_IMMOB Pin=RL3-2
Added Pin To Net: NetName=VCC Pin=RL3-3
Added Pin To Net: NetName=GUN_RACK Pin=RL3-5
Added Pin To Net: NetName=VCC Pin=RL4-1
Added Pin To Net: NetName=EXT_IMMOB Pin=RL4-2
Added Pin To Net: NetName=VCC Pin=RL4-3
Added Pin To Net: NetName=IGNITION Pin=RL4-5
Added Pin To Net: NetName=VCC Pin=RL5-1
Added Pin To Net: NetName=EXT_IMMOB Pin=RL5-2
Added Pin To Net: NetName=12V_ARM Pin=RL5-3
Added Pin To Net: NetName=NetD2_2 Pin=RL5-4
Added Member To Class: ClassName=Idle Protector V1 Member=Component RL2 0-1393280-6
Added Member To Class: ClassName=Idle Protector V1 Member=Component RL3 0-1393280-6
Added Member To Class: ClassName=Idle Protector V1 Member=Component RL4 0-1393280-6
Added Member To Class: ClassName=Idle Protector V1 Member=Component RL5 0-1393280-6
