Removed Pin From Net: NetName=ENABLE Pin=R5-1
Removed Pin From Net: NetName=NetC4_2 Pin=R5-2
Removed Pin From Net: NetName=NetC4_1 Pin=R8-1
Removed Pin From Net: NetName=ENABLE Pin=R8-2
Change Component Footprint: Designator=R5 Old Footprint=0603RES New Footprint=1206RES
Change Component Footprint: Designator=C1 Old Footprint=0805C New Footprint=CAPC3216X13N
Change Component Footprint: Designator=C3 Old Footprint=1206CAP New Footprint=CAPC1608X09N
Change component parameters: Designator = "R5"; Footprint = "1206RES"; UniqueID = "\DOTURKUQ"
Change component parameters. Clean all parameters for all variants
Change component parameters: Designator = "R8"; Footprint = "0603RES"; UniqueID = "\MJXJOQWP"
Change component parameters. Clean all parameters for all variants
Added Component: Designator=C4(CAPC1608X09N)
Add component. Clean all parameters for all variants
Add component (AddParameter): Name = "ComponentLink1Description"; Value = "Datasheet"; VariantName = "[No Variations]"
Add component (AddParameter): Name = "ComponentLink1URL"; Value = "http://10.3.0.23/svn/altiumlib/trunk/ecad_shared/components&datasheets/Capacitor/Ceramic/CAP 100N GRM188R71H104KA93#.pdf"; VariantName = "[No Variations]"
Add component (AddParameter): Name = "ComponentLink2Description"; Value = ""; VariantName = "[No Variations]"
Add component (AddParameter): Name = "ComponentLink2URL"; Value = ""; VariantName = "[No Variations]"
Add component (AddParameter): Name = "Design Part ID"; Value = "3"; VariantName = "[No Variations]"
Add component (AddParameter): Name = "Dieletric"; Value = "X7R"; VariantName = "[No Variations]"
Add component (AddParameter): Name = "JEDEC"; Value = "0603"; VariantName = "[No Variations]"
Add component (AddParameter): Name = "Lifecycle"; Value = "RELEASED"; VariantName = "[No Variations]"
Add component (AddParameter): Name = "Lifetime"; Value = ""; VariantName = "[No Variations]"
Add component (AddParameter): Name = "Mounting"; Value = "SMT"; VariantName = "[No Variations]"
Add component (AddParameter): Name = "Originator"; Value = ""; VariantName = "[No Variations]"
Add component (AddParameter): Name = "Part Number"; Value = "2C3100XB/02"; VariantName = "[No Variations]"
Add component (AddParameter): Name = "Project Ref"; Value = ""; VariantName = "[No Variations]"
Add component (AddParameter): Name = "Sys_Description"; Value = "CAP 100N 0603 X7R 50V NISN"; VariantName = "[No Variations]"
Add component (AddParameter): Name = "Sys_Ebq"; Value = "4000.000000"; VariantName = "[No Variations]"
Add component (AddParameter): Name = "Sys_Leadtime"; Value = "5"; VariantName = "[No Variations]"
Add component (AddParameter): Name = "Sys_LongDescription"; Value = ""; VariantName = "[No Variations]"
Add component (AddParameter): Name = "Sys_Manufacturer"; Value = "MURATA"; VariantName = "[No Variations]"
Add component (AddParameter): Name = "Sys_ManufacturerPartNo"; Value = "GRM188R71H104KA93D"; VariantName = "[No Variations]"
Add component (AddParameter): Name = "Sys_MaterialCost"; Value = "0.03270"; VariantName = "[No Variations]"
Add component (AddParameter): Name = "Sys_PartCategory"; Value = ""; VariantName = "[No Variations]"
Add component (AddParameter): Name = "Sys_QtyAllocated"; Value = "527848"; VariantName = "[No Variations]"
Add component (AddParameter): Name = "Sys_QtyFree"; Value = "234776"; VariantName = "[No Variations]"
Add component (AddParameter): Name = "Sys_QtyOnHand"; Value = "762624"; VariantName = "[No Variations]"
Add component (AddParameter): Name = "Sys_StockOnHold"; Value = ""; VariantName = "[No Variations]"
Add component (AddParameter): Name = "Sys_Supplier"; Value = "ARR002"; VariantName = "[No Variations]"
Add component (AddParameter): Name = "Sys_UnitOfMeasure"; Value = "ea"; VariantName = "[No Variations]"
Add component (AddParameter): Name = "Sys_UpdateDateTime"; Value = "2016-01-19 9:03:46 AM"; VariantName = "[No Variations]"
Add component (AddParameter): Name = "Sys_Warehouse"; Value = "Z2"; VariantName = "[No Variations]"
Add component (AddParameter): Name = "Sys_YtdQtyIssued"; Value = "5462754"; VariantName = "[No Variations]"
Add component (AddParameter): Name = "Temperature"; Value = "-55C to +125C"; VariantName = "[No Variations]"
Add component (AddParameter): Name = "Tolerance"; Value = "10%"; VariantName = "[No Variations]"
Add component (AddParameter): Name = "Type"; Value = "Ceramic"; VariantName = "[No Variations]"
Add component (AddParameter): Name = "Value"; Value = "100N"; VariantName = "[No Variations]"
Add component (AddParameter): Name = "Voltage"; Value = "50V"; VariantName = "[No Variations]"
Added Component: Designator=C5(CAPC1608X09N)
Add component. Clean all parameters for all variants
Add component (AddParameter): Name = "ComponentLink1Description"; Value = "Datasheet"; VariantName = "[No Variations]"
Add component (AddParameter): Name = "ComponentLink1URL"; Value = "http://10.3.0.23/svn/altiumlib/trunk/ecad_shared/components&datasheets/Capacitor/Ceramic/CAP 100N GRM188R71H104KA93#.pdf"; VariantName = "[No Variations]"
Add component (AddParameter): Name = "ComponentLink2Description"; Value = ""; VariantName = "[No Variations]"
Add component (AddParameter): Name = "ComponentLink2URL"; Value = ""; VariantName = "[No Variations]"
Add component (AddParameter): Name = "Design Part ID"; Value = "3"; VariantName = "[No Variations]"
Add component (AddParameter): Name = "Dieletric"; Value = "X7R"; VariantName = "[No Variations]"
Add component (AddParameter): Name = "JEDEC"; Value = "0603"; VariantName = "[No Variations]"
Add component (AddParameter): Name = "Lifecycle"; Value = "RELEASED"; VariantName = "[No Variations]"
Add component (AddParameter): Name = "Lifetime"; Value = ""; VariantName = "[No Variations]"
Add component (AddParameter): Name = "Mounting"; Value = "SMT"; VariantName = "[No Variations]"
Add component (AddParameter): Name = "Originator"; Value = ""; VariantName = "[No Variations]"
Add component (AddParameter): Name = "Part Number"; Value = "2C3100XB/02"; VariantName = "[No Variations]"
Add component (AddParameter): Name = "Project Ref"; Value = ""; VariantName = "[No Variations]"
Add component (AddParameter): Name = "Sys_Description"; Value = "CAP 100N 0603 X7R 50V NISN"; VariantName = "[No Variations]"
Add component (AddParameter): Name = "Sys_Ebq"; Value = "4000.000000"; VariantName = "[No Variations]"
Add component (AddParameter): Name = "Sys_Leadtime"; Value = "5"; VariantName = "[No Variations]"
Add component (AddParameter): Name = "Sys_LongDescription"; Value = ""; VariantName = "[No Variations]"
Add component (AddParameter): Name = "Sys_Manufacturer"; Value = "MURATA"; VariantName = "[No Variations]"
Add component (AddParameter): Name = "Sys_ManufacturerPartNo"; Value = "GRM188R71H104KA93D"; VariantName = "[No Variations]"
Add component (AddParameter): Name = "Sys_MaterialCost"; Value = "0.03270"; VariantName = "[No Variations]"
Add component (AddParameter): Name = "Sys_PartCategory"; Value = ""; VariantName = "[No Variations]"
Add component (AddParameter): Name = "Sys_QtyAllocated"; Value = "527848"; VariantName = "[No Variations]"
Add component (AddParameter): Name = "Sys_QtyFree"; Value = "234776"; VariantName = "[No Variations]"
Add component (AddParameter): Name = "Sys_QtyOnHand"; Value = "762624"; VariantName = "[No Variations]"
Add component (AddParameter): Name = "Sys_StockOnHold"; Value = ""; VariantName = "[No Variations]"
Add component (AddParameter): Name = "Sys_Supplier"; Value = "ARR002"; VariantName = "[No Variations]"
Add component (AddParameter): Name = "Sys_UnitOfMeasure"; Value = "ea"; VariantName = "[No Variations]"
Add component (AddParameter): Name = "Sys_UpdateDateTime"; Value = "2016-01-19 9:03:46 AM"; VariantName = "[No Variations]"
Add component (AddParameter): Name = "Sys_Warehouse"; Value = "Z2"; VariantName = "[No Variations]"
Add component (AddParameter): Name = "Sys_YtdQtyIssued"; Value = "5462754"; VariantName = "[No Variations]"
Add component (AddParameter): Name = "Temperature"; Value = "-55C to +125C"; VariantName = "[No Variations]"
Add component (AddParameter): Name = "Tolerance"; Value = "10%"; VariantName = "[No Variations]"
Add component (AddParameter): Name = "Type"; Value = "Ceramic"; VariantName = "[No Variations]"
Add component (AddParameter): Name = "Value"; Value = "100N"; VariantName = "[No Variations]"
Add component (AddParameter): Name = "Voltage"; Value = "50V"; VariantName = "[No Variations]"
Added Component: Designator=C6(CAPC3216X13N)
Add component. Clean all parameters for all variants
Add component (AddParameter): Name = "ComponentLink1Description"; Value = ""; VariantName = "[No Variations]"
Add component (AddParameter): Name = "ComponentLink1URL"; Value = ""; VariantName = "[No Variations]"
Add component (AddParameter): Name = "ComponentLink2Description"; Value = ""; VariantName = "[No Variations]"
Add component (AddParameter): Name = "ComponentLink2URL"; Value = ""; VariantName = "[No Variations]"
Add component (AddParameter): Name = "Design Part ID"; Value = "292"; VariantName = "[No Variations]"
Add component (AddParameter): Name = "Dieletric"; Value = "X7R"; VariantName = "[No Variations]"
Add component (AddParameter): Name = "JEDEC"; Value = "1206"; VariantName = "[No Variations]"
Add component (AddParameter): Name = "Lifecycle"; Value = "RELEASED"; VariantName = "[No Variations]"
Add component (AddParameter): Name = "Lifetime"; Value = ""; VariantName = "[No Variations]"
Add component (AddParameter): Name = "Mounting"; Value = "SMD"; VariantName = "[No Variations]"
Add component (AddParameter): Name = "Originator"; Value = "Keith"; VariantName = "[No Variations]"
Add component (AddParameter): Name = "Part Number"; Value = "SC0132105"; VariantName = "[No Variations]"
Add component (AddParameter): Name = "Project Ref"; Value = "740000"; VariantName = "[No Variations]"
Add component (AddParameter): Name = "Sys_Description"; Value = "CAP X7R 1uF 25V 10% 1206"; VariantName = "[No Variations]"
Add component (AddParameter): Name = "Sys_Ebq"; Value = "2000.000000"; VariantName = "[No Variations]"
Add component (AddParameter): Name = "Sys_Leadtime"; Value = "98"; VariantName = "[No Variations]"
Add component (AddParameter): Name = "Sys_LongDescription"; Value = "CAP X7R 1uF 25V 10% 1206"; VariantName = "[No Variations]"
Add component (AddParameter): Name = "Sys_Manufacturer"; Value = "MURATA"; VariantName = "[No Variations]"
Add component (AddParameter): Name = "Sys_ManufacturerPartNo"; Value = "GRM31MR71E105KC01L"; VariantName = "[No Variations]"
Add component (AddParameter): Name = "Sys_MaterialCost"; Value = "0.20730"; VariantName = "[No Variations]"
Add component (AddParameter): Name = "Sys_PartCategory"; Value = ""; VariantName = "[No Variations]"
Add component (AddParameter): Name = "Sys_QtyAllocated"; Value = "0"; VariantName = "[No Variations]"
Add component (AddParameter): Name = "Sys_QtyFree"; Value = "0"; VariantName = "[No Variations]"
Add component (AddParameter): Name = "Sys_QtyOnHand"; Value = "0"; VariantName = "[No Variations]"
Add component (AddParameter): Name = "Sys_StockOnHold"; Value = ""; VariantName = "[No Variations]"
Add component (AddParameter): Name = "Sys_Supplier"; Value = "ARR002"; VariantName = "[No Variations]"
Add component (AddParameter): Name = "Sys_UnitOfMeasure"; Value = "ea"; VariantName = "[No Variations]"
Add component (AddParameter): Name = "Sys_UpdateDateTime"; Value = "2016-01-18 12:55:59 PM"; VariantName = "[No Variations]"
Add component (AddParameter): Name = "Sys_Warehouse"; Value = "S2"; VariantName = "[No Variations]"
Add component (AddParameter): Name = "Sys_YtdQtyIssued"; Value = "222"; VariantName = "[No Variations]"
Add component (AddParameter): Name = "Temperature"; Value = "-55C - +125C"; VariantName = "[No Variations]"
Add component (AddParameter): Name = "Tolerance"; Value = "10%"; VariantName = "[No Variations]"
Add component (AddParameter): Name = "Type"; Value = "Ceramic"; VariantName = "[No Variations]"
Add component (AddParameter): Name = "Value"; Value = "1U"; VariantName = "[No Variations]"
Add component (AddParameter): Name = "Voltage"; Value = "25V"; VariantName = "[No Variations]"
Added Component: Designator=C7(CAPC1608X09N)
Add component. Clean all parameters for all variants
Add component (AddParameter): Name = "ComponentLink1Description"; Value = "Datasheet"; VariantName = "[No Variations]"
Add component (AddParameter): Name = "ComponentLink1URL"; Value = "http://10.3.0.23/svn/altiumlib/trunk/ecad_shared/components&datasheets/Capacitor/Ceramic/CAP 4U7 6.3V 2255-206-13672.pdf"; VariantName = "[No Variations]"
Add component (AddParameter): Name = "ComponentLink2Description"; Value = ""; VariantName = "[No Variations]"
Add component (AddParameter): Name = "ComponentLink2URL"; Value = ""; VariantName = "[No Variations]"
Add component (AddParameter): Name = "Design Part ID"; Value = "234"; VariantName = "[No Variations]"
Add component (AddParameter): Name = "Dieletric"; Value = "X5R"; VariantName = "[No Variations]"
Add component (AddParameter): Name = "JEDEC"; Value = "0603"; VariantName = "[No Variations]"
Add component (AddParameter): Name = "Lifecycle"; Value = "RELEASED"; VariantName = "[No Variations]"
Add component (AddParameter): Name = "Lifetime"; Value = ""; VariantName = "[No Variations]"
Add component (AddParameter): Name = "Mounting"; Value = "SMT"; VariantName = "[No Variations]"
Add component (AddParameter): Name = "Originator"; Value = ""; VariantName = "[No Variations]"
Add component (AddParameter): Name = "Part Number"; Value = "2C4470XB/03"; VariantName = "[No Variations]"
Add component (AddParameter): Name = "Project Ref"; Value = ""; VariantName = "[No Variations]"
Add component (AddParameter): Name = "Sys_Description"; Value = "CAP 4U7 6.3V X5R 0603 NISN"; VariantName = "[No Variations]"
Add component (AddParameter): Name = "Sys_Ebq"; Value = "4000.000000"; VariantName = "[No Variations]"
Add component (AddParameter): Name = "Sys_Leadtime"; Value = "15"; VariantName = "[No Variations]"
Add component (AddParameter): Name = "Sys_LongDescription"; Value = ""; VariantName = "[No Variations]"
Add component (AddParameter): Name = "Sys_Manufacturer"; Value = "PHYCOMP"; VariantName = "[No Variations]"
Add component (AddParameter): Name = "Sys_ManufacturerPartNo"; Value = "2255-206-13672"; VariantName = "[No Variations]"
Add component (AddParameter): Name = "Sys_MaterialCost"; Value = "0.14810"; VariantName = "[No Variations]"
Add component (AddParameter): Name = "Sys_PartCategory"; Value = ""; VariantName = "[No Variations]"
Add component (AddParameter): Name = "Sys_QtyAllocated"; Value = "3418"; VariantName = "[No Variations]"
Add component (AddParameter): Name = "Sys_QtyFree"; Value = "27469"; VariantName = "[No Variations]"
Add component (AddParameter): Name = "Sys_QtyOnHand"; Value = "30887"; VariantName = "[No Variations]"
Add component (AddParameter): Name = "Sys_StockOnHold"; Value = ""; VariantName = "[No Variations]"
Add component (AddParameter): Name = "Sys_Supplier"; Value = "AVN002"; VariantName = "[No Variations]"
Add component (AddParameter): Name = "Sys_UnitOfMeasure"; Value = "ea"; VariantName = "[No Variations]"
Add component (AddParameter): Name = "Sys_UpdateDateTime"; Value = "2016-01-19 9:04:05 AM"; VariantName = "[No Variations]"
Add component (AddParameter): Name = "Sys_Warehouse"; Value = "Z2"; VariantName = "[No Variations]"
Add component (AddParameter): Name = "Sys_YtdQtyIssued"; Value = "42617"; VariantName = "[No Variations]"
Add component (AddParameter): Name = "Temperature"; Value = "-55C to +125C"; VariantName = "[No Variations]"
Add component (AddParameter): Name = "Tolerance"; Value = "10%"; VariantName = "[No Variations]"
Add component (AddParameter): Name = "Type"; Value = "Ceramic"; VariantName = "[No Variations]"
Add component (AddParameter): Name = "Value"; Value = "4U7"; VariantName = "[No Variations]"
Add component (AddParameter): Name = "Voltage"; Value = "6V3"; VariantName = "[No Variations]"
Added Component: Designator=R21(0603RES)
Add component. Clean all parameters for all variants
Added Component: Designator=R22(0603RES)
Add component. Clean all parameters for all variants
Added Pin To Net: NetName=NetC4_1 Pin=C4-1
Added Pin To Net: NetName=NetC4_2 Pin=C4-2
Added Pin To Net: NetName=5V Pin=C5-1
Added Pin To Net: NetName=VIN Pin=C5-2
Added Pin To Net: NetName=5V Pin=C6-1
Added Pin To Net: NetName=VIN Pin=C6-2
Added Pin To Net: NetName=5V Pin=C7-1
Added Pin To Net: NetName=5V Pin=C7-2
Added Pin To Net: NetName=NetC4_2 Pin=R5-1
Added Pin To Net: NetName=ENABLE Pin=R5-2
Added Pin To Net: NetName=ENABLE Pin=R8-1
Added Pin To Net: NetName=NetC4_1 Pin=R8-2
Added Pin To Net: NetName=5V Pin=R21-1
Added Pin To Net: NetName=5V Pin=R22-2
Added Pin To Net: NetName=NetR21_2 Pin=R21-2
Added Pin To Net: NetName=NetR21_2 Pin=R22-1
Added Net: Name=NetR21_2
Added Member To Class: ClassName=AIO Flasher Member=Component C4 100N
Added Member To Class: ClassName=AIO Flasher Member=Component C5 100N
Added Member To Class: ClassName=AIO Flasher Member=Component C6 1U
Added Member To Class: ClassName=AIO Flasher Member=Component C7 4U7
Added Member To Class: ClassName=AIO Flasher Member=Component R21 2K
Added Member To Class: ClassName=AIO Flasher Member=Component R22 9K53
